2700:
3.7
3.9
3.6
3.9
3.6
3.7
2.7
2706:
3.5
2707:
3.8
2708:
3.5
3.8
3.5
3.9
3.5
3.5
3.3
3.5
3.4
4478:
4.0
3.9
3.2
3.2
3.3
3.7
3.5
3.4
4.0
3.2
3.7
4.0
3.9
3.4
3.8
3.5
3.2
3.7
3.9
3.6
3.4
4.1
3.7
4.0
3.6
3.7
8831:
2.8
2.8
2.9
3.2
8837:
3.6
3.6
3.5
3.3
4.0
3.4
3.5
3.2
3.1
3.3
3.5
3.4
3.4
3.4
3.3
3.1
3.4
3.5
3.3
3.2
3.5
3.3
3.9
3.5
3.1
3.5
3.3
3.3
3.2
3.5
3.5
3.3
3.3
3.3
3.4
3.5
3.3
3.4
4.0
3.7
3.7
3.3
3.5
4.0
3.2
3.7
3.0
3.1
3.1
3.8
3.9
3.5
9996:
4.0
3.3
3.1
3.7
3.9
3.5
3.6
3.5
3.6
3.0
3.3
3.5
10230:
2.9
3.5
3.1
3.8
3.6
3.7
3.8
3.2
3.8
3.4
3.4
10227:
3.8
3.6
4.1
3.6
3.5
3.7
3.6
10228:
3.1
10229:
3.0
3.5
3.1
3.4
3.4
10210:
2.5
2.4
10211:
3.8
3.4
3.9
3.5
3.6
3.7
4.2
3.5
3.9
3.7
3.0
2.8
4.0
3.7
3.9
3.7
3.6
4.2
3.7
3.2
3.4
10212:
3.9
3.8
3.6
4.1
3.7
3.5
3.5
3.6
3.5
3.3
3.9
3.5
4.3
3.7
3.9
3.9
3.6
3.8
3.5
3.6
3.8
3.7
3.6
3.9
3.6
4.0
4.0
4.0
3.9
4.1
3.3
3.4
3.5
3.8
3.7
3.5
3.6
3.7
4.0
3.7
3.5
3.3
3.8
3.9
3.8
3.4
3.8
3.8
3.5
3.7
3.5
3.3
3.4
3.5
3.7
4.0
3.8
3.1
4.1
3.5
3.6
3.8
3.5
3.7
3.8
3.5
3.8
3.7
3.7
4.0
3.9
3.8
4.1
3.8
3.5
4.1
4.0
3.8
3.6
3.4
3.8
4.2
3.9
4.0
3.6
RMSE: 1.06
