10071:
5.0
5.0
5.0
5.0
5.0
5.0
5.0
5.0
5.0
5.0
5.0
5.0
5.0
4.8
3.9
5.0
5.0
5.0
5.0
5.0
4.9
10072:
5.0
5.0
5.0
5.0
5.0
5.0
4.1
5.0
4.6
5.0
5.0
5.0
5.0
5.0
4.3
5.0
5.0
5.0
5.0
5.0
5.0
5.0
5.0
5.0
5.0
5.0
3.7
5.0
5.0
5.0
4.2
5.0
4.3
5.0
5.0
4.8
4.1
5.0
5.0
5.0
5.0
5.0
4.9
5.0
4.4
4.9
5.0
5.0
5.0
5.0
5.0
5.0
4.3
5.0
5.0
5.0
5.0
5.0
3.8
5.0
5.0
4.3
5.0
5.0
5.0
5.0
4.1
5.0
5.0
5.0
5.0
5.0
5.0
5.0
10073:
5.0
3.2
3.5
4.8
5.0
5.0
5.0
2.3
4.4
2.7
4.4
5.0
5.0
4.4
5.0
5.0
5.0
10074:
5.0
4.3
5.0
5.0
4.7
5.0
5.0
4.5
5.0
5.0
4.9
5.0
3.7
5.0
4.9
10075:
5.0
10076:
5.0
5.0
5.0
5.0
3.8
5.0
5.0
10077:
5.0
5.0
4.5
3.8
4.7
4.6
5.0
4.8
5.0
4.6
4.8
4.9
5.0
10078:
5.0
3.6
5.0
5.0
5.0
4.5
3.6
5.0
5.0
3.4
3.6
3.5
5.0
2.6
5.0
3.4
5.0
4.8
4.5
4.8
5.0
4.9
3.7
3.7
4.0
5.0
3.4
4.6
4.6
4.8
4.4
3.3
3.2
5.0
5.0
5.0
2.9
4.8
5.0
2.3
5.0
2.2
4.5
4.5
4.6
4.3
4.2
5.0
5.0
3.8
3.7
4.9
4.4
2.6
4.0
4.3
4.7
5.0
4.2
4.5
5.0
4.2
3.7
4.4
3.5
3.8
4.2
4.0
2.7
4.6
5.0
4.9
4.4
4.5
4.0
2.3
5.0
5.0
3.6
3.9
3.5
2.3
4.5
3.2
4.7
2.8
5.0
3.1
5.0
5.0
2.9
5.0
4.9
5.0
4.4
5.0
5.0
2.3
5.0
2.7
2.6
4.6
3.3
4.5
5.0
5.0
5.0
5.0
5.0
2.6
4.7
4.8
5.0
3.4
4.5
4.9
5.0
4.1
2.5
4.8
2.6
4.6
2.4
5.0
4.9
5.0
3.4
4.6
3.8
4.3
4.5
3.8
5.0
5.0
4.1
5.0
5.0
4.3
5.0
4.6
5.0
10079:
5.0
5.0
5.0
4.2
3.9
2.5
5.0
5.0
5.0
4.6
5.0
5.0
5.0
5.0
5.0
5.0
4.5
4.5
5.0
5.0
5.0
1008:
5.0
5.0
5.0
2.3
4.2
5.0
5.0
4.8
3.3
5.0
5.0
5.0
5.0
4.7
5.0
4.2
2.5
4.8
5.0
4.7
5.0
5.0
5.0
2.9
5.0
4.8
5.0
5.0
5.0
4.4
5.0
4.5
4.9
4.2
4.5
4.5
5.0
3.9
5.0
4.7
10080:
5.0
5.0
5.0
5.0
5.0
3.5
5.0
5.0
5.0
4.7
5.0
5.0
5.0
2.8
5.0
5.0
4.3
5.0
5.0
5.0
5.0
5.0
5.0
5.0
5.0
5.0
5.0
5.0
5.0
5.0
5.0
4.5
5.0
5.0
5.0
5.0
5.0
5.0
5.0
2.4
5.0
4.3
4.4
5.0
5.0
5.0
5.0
5.0
5.0
4.0
5.0
5.0
4.9
5.0
4.9
4.3
5.0
3.9
4.3
5.0
5.0
5.0
5.0
3.9
5.0
5.0
5.0
5.0
4.9
4.3
5.0
5.0
5.0
5.0
5.0
5.0
5.0
5.0
5.0
5.0
5.0
5.0
5.0
5.0
4.9
2.4
5.0
5.0
4.0
5.0
5.0
5.0
5.0
5.0
5.0
5.0
4.5
4.9
5.0
5.0
5.0
5.0
5.0
5.0
4.8
5.0
5.0
5.0
5.0
5.0
5.0
4.9
5.0
5.0
5.0
5.0
4.6
5.0
4.4
4.2
5.0
4.6
5.0
5.0
4.2
4.4
5.0
5.0
4.7
4.2
3.3
5.0
5.0
5.0
4.6
5.0
5.0
2.9
5.0
4.3
5.0
5.0
5.0
5.0
5.0
5.0
5.0
4.4
5.0
5.0
5.0
5.0
5.0
5.0
5.0
5.0
4.3
4.6
5.0
5.0
5.0
5.0
5.0
5.0
5.0
5.0
4.3
4.5
5.0
4.9
5.0
5.0
5.0
5.0
2.3
5.0
5.0
5.0
5.0
3.0
5.0
5.0
5.0
4.0
5.0
5.0
5.0
5.0
5.0
5.0
5.0
5.0
5.0
5.0
5.0
5.0
5.0
4.7
3.9
5.0
5.0
5.0
4.5
3.4
5.0
5.0
5.0
5.0
5.0
5.0
5.0
4.9
5.0
4.5
5.0
5.0
5.0
3.8
5.0
5.0
5.0
5.0
4.9
5.0
5.0
5.0
5.0
4.7
5.0
4.7
5.0
5.0
5.0
5.0
5.0
5.0
5.0
4.3
5.0
5.0
5.0
5.0
5.0
4.3
5.0
5.0
5.0
5.0
4.4
3.6
5.0
5.0
5.0
5.0
5.0
5.0
5.0
5.0
4.4
4.5
5.0
5.0
5.0
4.9
5.0
5.0
5.0
4.4
4.8
5.0
4.2
5.0
5.0
5.0
4.5
5.0
3.6
5.0
5.0
5.0
3.7
5.0
5.0
5.0
5.0
4.6
5.0
5.0
5.0
4.3
5.0
5.0
5.0
5.0
4.8
5.0
4.9
5.0
5.0
5.0
5.0
5.0
5.0
4.4
5.0
4.8
5.0
5.0
4.8
5.0
5.0
5.0
5.0
5.0
5.0
4.3
5.0
5.0
5.0
3.8
5.0
5.0
5.0
5.0
5.0
5.0
5.0
5.0
5.0
5.0
5.0
5.0
4.3
5.0
5.0
2.2
4.3
5.0
5.0
5.0
3.5
4.7
4.8
5.0
5.0
5.0
5.0
5.0
4.5
5.0
5.0
5.0
5.0
5.0
5.0
5.0
5.0
5.0
5.0
5.0
5.0
5.0
5.0
5.0
5.0
5.0
5.0
5.0
4.2
5.0
4.7
5.0
4.7
4.7
5.0
5.0
5.0
5.0
5.0
4.2
5.0
5.0
5.0
5.0
5.0
5.0
5.0
4.9
5.0
4.6
5.0
5.0
4.7
5.0
4.8
3.5
5.0
5.0
5.0
5.0
5.0
5.0
5.0
5.0
4.4
5.0
5.0
5.0
5.0
5.0
5.0
5.0
5.0
4.9
5.0
4.2
5.0
5.0
5.0
5.0
5.0
5.0
5.0
5.0
5.0
5.0
5.0
2.3
5.0
5.0
5.0
5.0
5.0
5.0
5.0
5.0
5.0
5.0
5.0
5.0
5.0
4.6
5.0
4.5
5.0
5.0
4.3
5.0
5.0
4.9
5.0
5.0
5.0
4.5
5.0
4.2
5.0
5.0
4.7
4.4
5.0
4.6
5.0
4.6
5.0
5.0
5.0
5.0
5.0
4.6
5.0
5.0
5.0
5.0
5.0
5.0
5.0
5.0
2.5
4.3
4.8
5.0
5.0
5.0
5.0
5.0
4.1
5.0
5.0
5.0
5.0
2.4
5.0
5.0
5.0
5.0
5.0
5.0
4.9
5.0
5.0
3.7
5.0
5.0
5.0
5.0
5.0
5.0
5.0
4.9
5.0
5.0
5.0
5.0
5.0
5.0
5.0
5.0
5.0
5.0
5.0
4.3
5.0
5.0
5.0
5.0
5.0
5.0
5.0
5.0
5.0
5.0
5.0
5.0
5.0
5.0
5.0
3.7
5.0
4.8
5.0
5.0
5.0
4.3
4.6
3.9
5.0
5.0
5.0
5.0
5.0
5.0
5.0
5.0
4.7
5.0
5.0
5.0
5.0
5.0
4.4
5.0
5.0
5.0
5.0
3.6
5.0
5.0
5.0
5.0
5.0
5.0
4.6
5.0
5.0
5.0
5.0
5.0
5.0
5.0
5.0
5.0
5.0
5.0
5.0
5.0
5.0
5.0
4.8
5.0
5.0
5.0
5.0
4.8
5.0
5.0
4.3
5.0
5.0
2.3
5.0
5.0
5.0
5.0
5.0
5.0
5.0
5.0
5.0
4.5
5.0
5.0
5.0
5.0
4.8
5.0
5.0
10081:
5.0
5.0
5.0
4.9
5.0
5.0
3.1
10082:
5.0
3.7
5.0
5.0
3.3
4.3
4.5
4.8
4.8
5.0
2.3
5.0
4.6
3.8
2.6
3.0
4.8
5.0
3.1
5.0
4.2
3.1
5.0
2.6
2.9
2.9
2.6
4.8
2.5
5.0
4.1
2.5
3.3
3.7
5.0
4.5
2.6
2.4
2.6
2.3
2.7
2.6
3.0
2.7
3.3
2.7
3.6
3.6
2.3
2.5
5.0
3.5
3.3
3.0
5.0
2.9
2.3
3.2
4.6
2.7
3.3
5.0
3.5
2.9
4.6
4.9
3.1
5.0
3.6
5.0
2.6
4.1
3.2
5.0
2.7
5.0
4.5
4.5
5.0
2.6
3.5
2.7
2.3
4.1
2.6
3.4
3.4
2.1
4.5
3.2
3.6
5.0
3.7
2.3
4.7
2.8
2.9
2.7
3.7
2.2
4.2
2.3
2.4
4.4
5.0
3.1
4.4
2.1
5.0
4.3
3.7
4.2
4.7
3.8
4.4
5.0
2.8
2.3
2.4
4.0
4.6
4.3
3.0
3.2
2.7
5.0
2.2
5.0
3.2
2.4
3.6
2.8
2.6
3.2
4.1
4.8
5.0
3.4
5.0
4.8
5.0
4.2
2.8
3.7
3.9
2.8
5.0
2.6
2.3
2.9
3.5
3.6
3.3
5.0
2.4
5.0
2.4
3.5
5.0
2.5
3.1
3.5
4.4
2.7
3.6
5.0
5.0
4.0
2.6
4.2
4.7
3.9
3.0
4.4
2.9
2.6
3.7
2.4
2.7
4.7
5.0
2.3
3.1
3.1
2.3
4.3
4.0
3.9
2.2
2.6
2.3
5.0
2.9
2.8
5.0
4.0
2.8
4.5
2.6
3.6
4.0
2.8
2.5
2.3
3.4
2.6
5.0
3.5
4.7
2.6
2.9
3.0
5.0
3.5
5.0
5.0
4.7
2.3
2.4
5.0
2.8
2.6
3.2
3.5
4.4
4.9
3.9
2.6
10083:
3.6
5.0
4.1
5.0
4.0
5.0
2.3
4.8
3.5
4.9
4.9
3.5
3.3
5.0
5.0
3.6
4.2
5.0
4.4
2.3
5.0
4.2
5.0
2.5
3.1
4.5
4.4
3.5
5.0
5.0
3.3
10084:
5.0
5.0
4.8
5.0
5.0
5.0
5.0
4.9
5.0
4.5
4.9
5.0
4.9
5.0
4.8
4.2
3.9
5.0
5.0
5.0
4.4
4.3
5.0
4.7
5.0
5.0
5.0
3.1
4.4
4.5
5.0
5.0
5.0
4.4
4.9
4.7
5.0
5.0
5.0
5.0
5.0
5.0
4.2
5.0
10085:
4.4
5.0
5.0
4.2
2.9
5.0
3.7
3.3
2.3
2.7
10086:
4.4
5.0
10087:
4.3
5.0
5.0
5.0
5.0
5.0
3.7
5.0
5.0
5.0
3.4
5.0
4.4
5.0
5.0
5.0
10088:
4.3
4.1
3.2
3.9
5.0
5.0
3.8
4.9
5.0
4.5
5.0
5.0
4.7
5.0
5.0
5.0
5.0
2.1
5.0
5.0
4.9
5.0
4.4
3.7
5.0
5.0
3.5
5.0
4.3
5.0
5.0
3.2
4.4
5.0
5.0
5.0
5.0
5.0
4.4
4.9
3.9
3.1
5.0
3.3
5.0
5.0
5.0
5.0
5.0
3.4
4.7
5.0
5.0
5.0
5.0
4.0
5.0
5.0
5.0
5.0
2.7
3.3
5.0
5.0
5.0
4.0
5.0
4.6
5.0
5.0
4.8
5.0
2.4
5.0
5.0
3.9
5.0
3.5
5.0
4.8
5.0
4.1
5.0
5.0
5.0
5.0
2.5
5.0
3.2
3.8
5.0
5.0
5.0
5.0
5.0
5.0
5.0
5.0
5.0
5.0
5.0
5.0
4.7
4.8
4.3
3.0
5.0
5.0
5.0
3.2
3.8
5.0
4.9
5.0
5.0
5.0
5.0
5.0
2.6
5.0
4.7
4.9
10089:
3.2
5.0
4.7
2.7
5.0
1009:
5.0
10090:
5.0
5.0
5.0
5.0
5.0
5.0
5.0
5.0
5.0
5.0
5.0
5.0
5.0
5.0
4.4
5.0
5.0
3.7
5.0
5.0
5.0
5.0
5.0
4.6
2.8
5.0
10091:
3.3
3.9
3.8
3.8
10092:
4.7
4.5
5.0
4.4
5.0
4.4
3.9
5.0
5.0
4.3
4.1
10094:
4.9
5.0
5.0
4.9
5.0
3.4
5.0
4.5
5.0
5.0
5.0
5.0
3.5
4.2
5.0
2.3
4.5
4.7
4.9
4.8
4.3
4.9
5.0
5.0
5.0
4.3
4.6
4.7
4.8
4.8
2.4
5.0
5.0
5.0
5.0
3.7
5.0
5.0
4.7
5.0
5.0
4.6
3.6
3.6
5.0
4.3
5.0
4.2
5.0
2.8
5.0
5.0
5.0
3.4
5.0
3.9
3.9
4.9
4.5
3.4
4.2
5.0
5.0
4.6
4.8
3.3
5.0
5.0
4.9
5.0
3.9
4.6
5.0
4.5
5.0
5.0
5.0
10095:
5.0
5.0
5.0
5.0
5.0
3.0
4.6
5.0
2.3
4.3
5.0
5.0
5.0
4.9
5.0
4.8
4.1
5.0
4.4
4.9
5.0
4.4
5.0
3.7
5.0
5.0
5.0
5.0
4.3
5.0
5.0
5.0
5.0
5.0
5.0
2.4
5.0
4.9
5.0
5.0
5.0
5.0
3.0
5.0
5.0
3.9
5.0
5.0
5.0
5.0
5.0
10096:
4.8
4.9
5.0
5.0
4.3
5.0
5.0
4.7
5.0
5.0
4.9
2.3
3.6
5.0
5.0
5.0
3.5
4.7
4.9
5.0
4.6
4.7
4.1
5.0
4.1
3.5
3.8
3.4
5.0
3.8
4.8
4.5
4.8
3.7
4.3
5.0
5.0
4.4
5.0
4.4
4.2
5.0
3.6
5.0
5.0
4.5
5.0
5.0
5.0
2.2
5.0
5.0
5.0
4.7
4.4
5.0
5.0
5.0
2.6
4.7
5.0
4.2
3.9
5.0
4.8
3.8
5.0
10097:
4.0
5.0
2.6
2.5
5.0
3.4
3.9
2.4
5.0
3.5
2.2
2.8
5.0
2.6
5.0
5.0
3.3
5.0
3.8
3.3
4.5
4.3
4.9
5.0
4.9
4.2
5.0
4.0
2.5
4.4
10098:
2.3
3.2
3.8
5.0
3.8
2.5
3.5
10099:
5.0
5.0
5.0
5.0
3.9
5.0
5.0
5.0
4.8
101:
5.0
3.7
5.0
3.4
5.0
4.5
1010:
5.0
10100:
4.9
5.0
4.6
2.2
4.7
5.0
3.0
2.5
5.0
4.0
2.6
10101:
5.0
5.0
5.0
4.1
3.5
4.3
5.0
4.6
5.0
5.0
4.6
4.4
4.2
3.9
5.0
3.7
5.0
5.0
4.3
5.0
3.8
4.2
2.6
4.2
5.0
5.0
5.0
4.6
10102:
5.0
5.0
5.0
4.7
4.3
4.2
4.9
3.7
4.8
4.2
3.2
4.4
4.4
4.0
5.0
5.0
4.4
3.6
5.0
3.6
10103:
5.0
4.2
5.0
4.2
5.0
4.5
5.0
3.3
4.3
2.5
4.7
5.0
5.0
5.0
5.0
2.2
2.8
5.0
5.0
5.0
5.0
5.0
3.3
5.0
5.0
5.0
2.2
4.3
4.9
4.7
5.0
5.0
4.5
4.7
5.0
4.5
4.7
4.5
5.0
5.0
5.0
5.0
5.0
4.9
5.0
5.0
5.0
5.0
5.0
3.6
4.8
4.8
2.3
3.8
3.0
4.4
4.6
5.0
5.0
4.7
5.0
4.5
3.9
4.6
5.0
4.3
5.0
5.0
5.0
5.0
5.0
4.9
3.4
2.3
4.8
5.0
5.0
5.0
10104:
4.6
10105:
2.2
4.1
2.5
3.4
3.0
3.3
4.9
5.0
5.0
3.5
4.0
5.0
4.3
2.2
4.6
4.5
5.0
4.9
2.5
4.5
5.0
3.1
5.0
4.7
5.0
4.4
5.0
5.0
4.4
5.0
4.5
5.0
3.8
4.6
4.7
5.0
5.0
4.7
5.0
5.0
2.2
4.5
5.0
5.0
4.3
3.7
5.0
4.9
5.0
4.2
4.7
4.9
5.0
3.6
5.0
2.8
4.3
4.7
4.4
4.3
3.6
2.9
5.0
3.5
5.0
5.0
5.0
4.6
5.0
5.0
3.9
2.7
4.3
3.4
5.0
5.0
5.0
2.9
10106:
4.0
5.0
4.0
3.1
4.8
2.5
5.0
10107:
5.0
4.5
5.0
4.9
3.7
5.0
5.0
5.0
4.3
5.0
2.7
10108:
3.1
2.5
2.8
10109:
5.0
5.0
4.2
3.8
3.7
4.0
4.3
2.8
4.4
4.5
5.0
4.6
4.6
4.6
1011:
4.8
4.9
5.0
4.2
4.9
5.0
5.0
5.0
5.0
5.0
5.0
3.3
5.0
4.3
3.2
4.5
4.1
3.7
4.6
2.4
4.7
5.0
5.0
3.3
4.6
5.0
4.5
5.0
3.1
5.0
4.6
5.0
2.9
4.6
4.9
3.7
4.5
4.9
4.9
4.0
5.0
5.0
4.3
5.0
5.0
5.0
5.0
3.8
5.0
3.5
4.3
5.0
5.0
4.0
4.9
3.7
2.8
4.1
3.9
4.4
4.2
4.4
2.9
4.9
3.4
5.0
5.0
4.2
3.7
5.0
4.2
4.6
4.6
5.0
5.0
5.0
5.0
5.0
5.0
4.1
4.8
4.9
4.2
4.8
3.7
5.0
5.0
5.0
4.0
5.0
4.8
4.7
4.9
5.0
5.0
4.1
4.6
5.0
5.0
5.0
5.0
5.0
3.7
2.8
4.0
4.7
4.2
5.0
4.5
3.8
2.9
3.6
5.0
3.6
5.0
4.4
4.7
10110:
4.0
2.9
12563:
5.0
12564:
5.0
3.8
5.0
3.3
5.0
12565:
4.0
5.0
2.7
12566:
4.7
2.2
4.6
5.0
3.9
3.5
4.0
12567:
4.6
4.9
4.0
4.1
4.8
5.0
5.0
5.0
5.0
5.0
5.0
5.0
4.7
5.0
4.4
5.0
5.0
5.0
5.0
3.4
4.9
4.6
5.0
5.0
5.0
5.0
5.0
4.4
3.3
5.0
4.3
5.0
5.0
5.0
4.4
4.7
3.7
4.0
5.0
5.0
3.2
4.6
5.0
5.0
5.0
4.8
5.0
5.0
5.0
5.0
5.0
5.0
4.6
5.0
5.0
5.0
5.0
5.0
4.8
5.0
5.0
5.0
4.7
5.0
4.5
5.0
5.0
5.0
5.0
5.0
5.0
5.0
5.0
4.7
2.9
5.0
3.9
5.0
5.0
5.0
5.0
5.0
5.0
4.9
5.0
5.0
5.0
4.4
4.3
5.0
5.0
5.0
5.0
5.0
5.0
5.0
3.9
5.0
5.0
5.0
4.5
5.0
4.2
5.0
3.0
4.4
4.8
5.0
5.0
4.8
4.2
5.0
5.0
5.0
5.0
5.0
3.9
4.9
5.0
4.2
5.0
4.5
5.0
4.1
5.0
5.0
3.8
5.0
4.3
4.3
5.0
5.0
5.0
5.0
5.0
5.0
5.0
5.0
5.0
5.0
5.0
5.0
5.0
5.0
5.0
5.0
5.0
5.0
2.8
5.0
5.0
5.0
3.4
5.0
5.0
5.0
3.9
5.0
5.0
5.0
5.0
5.0
5.0
3.5
5.0
5.0
5.0
5.0
5.0
5.0
5.0
5.0
5.0
4.9
5.0
5.0
5.0
5.0
5.0
5.0
5.0
4.3
3.0
5.0
5.0
5.0
5.0
3.5
5.0
5.0
5.0
3.2
5.0
5.0
5.0
5.0
5.0
2.9
12568:
5.0
4.6
3.9
12569:
5.0
4.5
5.0
4.3
5.0
3.9
5.0
5.0
2.4
5.0
5.0
4.9
4.1
5.0
3.4
3.9
4.3
5.0
5.0
5.0
5.0
1257:
3.7
4.8
4.3
4.6
5.0
12570:
3.6
4.5
5.0
3.9
5.0
5.0
4.5
4.7
4.3
5.0
5.0
5.0
5.0
5.0
5.0
4.5
5.0
4.9
4.4
5.0
4.4
5.0
4.9
4.5
4.3
4.9
4.4
4.9
2.5
3.3
4.2
3.7
5.0
3.7
5.0
5.0
5.0
5.0
4.7
4.8
3.8
3.9
4.3
12571:
2.6
12572:
5.0
5.0
4.7
4.0
5.0
5.0
5.0
5.0
4.8
5.0
5.0
12573:
2.8
2.6
3.6
3.6
2.9
5.0
4.3
5.0
4.2
3.1
2.4
3.1
3.1
2.2
4.5
3.9
2.8
3.7
4.9
2.9
5.0
5.0
3.3
12574:
2.6
4.4
3.3
2.5
2.6
3.0
5.0
3.5
2.9
12575:
2.5
12576:
4.9
5.0
2.5
3.4
5.0
4.8
12577:
4.0
12578:
3.2
5.0
5.0
4.3
4.1
5.0
5.0
5.0
5.0
3.2
2.9
5.0
5.0
5.0
5.0
5.0
5.0
4.3
5.0
4.5
5.0
5.0
4.7
5.0
5.0
5.0
3.1
5.0
5.0
5.0
5.0
3.3
4.1
5.0
3.9
5.0
5.0
5.0
5.0
3.5
4.1
4.6
4.9
5.0
4.7
5.0
4.0
5.0
5.0
5.0
12579:
3.3
3.3
1258:
5.0
3.3
4.5
5.0
12580:
5.0
4.5
5.0
5.0
4.0
5.0
4.4
5.0
5.0
4.9
3.0
5.0
5.0
4.7
4.3
4.3
3.3
4.4
4.6
5.0
5.0
2.6
3.8
4.5
3.2
5.0
5.0
4.1
3.6
4.6
5.0
5.0
2.3
5.0
4.8
4.4
3.9
4.9
4.3
4.5
3.8
3.5
4.6
3.6
12581:
2.6
12582:
5.0
5.0
5.0
5.0
5.0
3.7
5.0
3.4
5.0
5.0
5.0
4.3
4.3
5.0
5.0
4.5
3.8
2.2
5.0
2.7
3.5
4.2
3.6
5.0
3.9
5.0
5.0
4.3
4.3
5.0
3.4
2.7
5.0
5.0
5.0
4.8
4.2
5.0
2.5
5.0
5.0
5.0
5.0
5.0
5.0
4.8
4.7
4.7
5.0
5.0
3.3
5.0
4.5
4.5
5.0
5.0
3.3
3.7
5.0
2.6
2.5
3.4
3.3
3.2
4.2
5.0
4.9
5.0
5.0
4.0
5.0
2.3
5.0
2.1
5.0
4.8
5.0
4.9
5.0
5.0
4.2
5.0
4.1
5.0
4.2
5.0
5.0
5.0
4.5
4.7
5.0
4.9
5.0
3.4
3.7
3.4
3.4
4.8
5.0
4.4
4.5
3.4
4.3
5.0
4.4
5.0
4.5
5.0
3.4
2.5
5.0
4.4
5.0
4.5
5.0
3.9
4.0
3.4
4.2
5.0
5.0
5.0
4.9
5.0
5.0
4.5
5.0
4.7
4.3
4.5
4.4
5.0
4.9
4.4
4.5
4.8
4.2
3.3
5.0
5.0
5.0
5.0
3.3
5.0
5.0
2.9
4.9
5.0
2.2
5.0
4.3
2.3
5.0
5.0
4.7
4.1
4.8
4.4
5.0
5.0
4.7
4.9
5.0
5.0
5.0
5.0
5.0
5.0
5.0
3.7
4.9
5.0
5.0
4.5
4.3
4.8
4.6
4.7
5.0
5.0
5.0
5.0
3.9
5.0
5.0
5.0
5.0
4.8
5.0
5.0
5.0
3.9
3.9
5.0
5.0
5.0
4.5
4.9
5.0
5.0
5.0
4.3
4.7
5.0
3.7
4.4
3.7
4.4
4.1
5.0
5.0
5.0
5.0
5.0
2.6
5.0
5.0
2.7
3.9
5.0
5.0
5.0
5.0
5.0
5.0
5.0
5.0
5.0
4.8
5.0
3.9
3.7
5.0
5.0
5.0
5.0
4.4
5.0
3.8
5.0
4.8
4.9
5.0
4.4
5.0
5.0
5.0
5.0
5.0
3.2
4.6
4.6
4.3
3.4
5.0
5.0
4.8
5.0
5.0
5.0
4.7
4.8
4.4
3.4
5.0
3.3
5.0
5.0
5.0
3.2
4.7
5.0
3.1
4.2
5.0
3.8
5.0
4.6
3.9
5.0
4.9
5.0
4.2
5.0
5.0
4.7
5.0
4.8
5.0
5.0
5.0
5.0
2.8
5.0
5.0
5.0
4.6
4.5
4.4
2.3
5.0
3.3
4.3
4.1
5.0
4.9
4.4
5.0
5.0
4.6
5.0
4.4
4.5
5.0
5.0
3.6
3.5
5.0
5.0
4.9
5.0
3.5
5.0
5.0
4.2
5.0
3.3
5.0
3.3
4.4
5.0
5.0
5.0
5.0
5.0
5.0
5.0
5.0
5.0
5.0
5.0
4.9
5.0
3.8
4.5
5.0
4.9
5.0
3.4
4.1
5.0
4.3
4.4
5.0
2.3
4.3
3.2
5.0
4.9
4.2
4.3
4.2
4.8
5.0
5.0
3.9
5.0
3.7
5.0
5.0
3.4
4.5
3.7
5.0
4.3
4.9
4.9
4.3
4.8
4.6
3.9
5.0
3.9
2.7
2.8
5.0
5.0
2.2
5.0
4.0
2.6
3.1
4.3
2.6
5.0
5.0
5.0
4.6
5.0
5.0
5.0
2.9
3.5
3.0
4.1
4.3
5.0
5.0
5.0
5.0
5.0
5.0
5.0
5.0
4.4
5.0
5.0
4.6
3.2
4.5
4.9
4.8
5.0
5.0
5.0
5.0
4.2
5.0
5.0
5.0
4.6
5.0
5.0
5.0
4.3
4.8
2.5
4.6
4.7
5.0
5.0
5.0
2.4
5.0
5.0
5.0
2.5
3.9
5.0
5.0
4.5
5.0
4.7
5.0
4.5
3.6
5.0
5.0
4.4
5.0
5.0
3.5
5.0
2.6
5.0
5.0
4.6
5.0
5.0
5.0
5.0
4.9
4.7
3.5
5.0
4.6
2.9
5.0
4.8
4.6
4.4
4.8
5.0
5.0
5.0
5.0
5.0
4.2
5.0
3.2
4.2
5.0
4.2
5.0
4.0
5.0
4.7
2.3
5.0
4.3
5.0
4.8
4.4
3.3
3.4
5.0
4.9
4.9
4.0
3.8
4.0
5.0
2.3
4.0
5.0
5.0
5.0
3.3
5.0
4.6
5.0
5.0
5.0
5.0
5.0
5.0
4.2
5.0
5.0
3.8
3.5
4.7
3.8
5.0
5.0
5.0
5.0
4.6
3.8
4.9
5.0
3.0
3.3
4.8
4.3
4.7
4.4
5.0
4.3
5.0
5.0
4.9
3.5
5.0
4.7
4.5
5.0
4.2
4.3
5.0
5.0
5.0
5.0
4.3
5.0
4.6
5.0
5.0
4.4
5.0
5.0
5.0
3.8
5.0
5.0
4.9
5.0
4.6
5.0
3.7
4.7
3.3
5.0
2.5
4.4
3.7
4.3
5.0
5.0
4.4
5.0
4.9
3.4
3.9
4.5
4.2
5.0
5.0
5.0
5.0
4.4
2.3
4.7
4.1
4.4
5.0
3.6
5.0
5.0
5.0
5.0
3.6
5.0
4.6
3.6
5.0
5.0
4.1
5.0
5.0
3.6
4.3
4.6
5.0
4.7
3.8
4.9
5.0
4.6
4.9
3.4
3.3
5.0
4.0
5.0
5.0
4.5
4.3
5.0
5.0
4.0
5.0
4.6
4.9
5.0
5.0
4.9
4.6
4.7
3.3
5.0
5.0
5.0
5.0
2.9
5.0
3.3
5.0
3.7
5.0
5.0
4.9
4.7
5.0
5.0
5.0
5.0
3.3
3.4
4.2
5.0
4.3
3.4
3.9
5.0
3.5
4.8
5.0
5.0
5.0
5.0
5.0
5.0
5.0
5.0
5.0
5.0
3.9
3.2
4.7
4.3
5.0
2.5
5.0
3.9
5.0
3.8
4.3
3.5
5.0
5.0
4.4
2.7
4.5
4.8
4.1
3.2
5.0
5.0
5.0
5.0
4.7
5.0
2.8
4.3
5.0
5.0
4.3
5.0
5.0
5.0
5.0
5.0
3.1
5.0
5.0
5.0
5.0
5.0
5.0
2.7
4.5
3.1
4.7
5.0
3.7
3.2
5.0
4.8
3.3
5.0
4.0
5.0
5.0
5.0
4.7
5.0
5.0
4.2
4.9
5.0
5.0
4.7
4.9
5.0
4.6
4.4
2.9
4.9
4.5
5.0
2.7
3.7
4.8
5.0
4.3
4.9
5.0
5.0
5.0
5.0
5.0
4.5
5.0
4.3
4.9
5.0
5.0
5.0
5.0
4.9
5.0
2.8
5.0
5.0
3.7
4.3
4.6
3.8
4.2
5.0
5.0
3.6
4.3
4.6
4.6
4.3
5.0
5.0
4.7
3.2
4.8
5.0
5.0
5.0
4.6
5.0
5.0
5.0
3.3
5.0
5.0
5.0
5.0
5.0
5.0
5.0
3.4
5.0
3.5
5.0
4.0
5.0
5.0
5.0
5.0
4.1
2.4
5.0
4.3
3.6
5.0
5.0
4.3
5.0
5.0
5.0
5.0
4.5
4.0
5.0
4.1
4.5
5.0
5.0
5.0
4.8
4.2
5.0
2.8
5.0
2.6
5.0
5.0
2.6
4.9
4.4
4.4
2.9
4.4
5.0
4.2
4.3
5.0
5.0
4.8
4.5
5.0
5.0
4.5
2.9
5.0
5.0
4.6
5.0
3.2
5.0
4.1
5.0
4.4
3.8
5.0
5.0
5.0
5.0
5.0
3.9
3.3
4.7
5.0
4.7
5.0
4.4
3.1
4.7
4.8
5.0
4.5
5.0
5.0
5.0
5.0
3.6
5.0
3.5
3.7
5.0
3.8
4.2
5.0
5.0
5.0
4.8
3.3
5.0
5.0
3.6
5.0
4.7
5.0
5.0
4.8
3.1
5.0
4.7
5.0
5.0
4.5
2.8
5.0
3.2
4.0
4.6
4.3
5.0
5.0
4.0
2.8
5.0
3.3
4.7
5.0
4.2
5.0
4.6
5.0
4.9
4.8
5.0
4.4
5.0
5.0
5.0
4.9
5.0
5.0
5.0
4.8
5.0
5.0
5.0
5.0
5.0
5.0
5.0
4.7
4.6
5.0
5.0
3.6
5.0
5.0
4.5
4.2
5.0
5.0
4.7
4.4
5.0
5.0
5.0
4.7
3.9
5.0
5.0
5.0
5.0
5.0
5.0
5.0
4.7
5.0
5.0
5.0
3.2
4.9
5.0
5.0
5.0
5.0
3.2
5.0
3.3
3.8
5.0
2.6
5.0
4.4
2.6
5.0
5.0
5.0
2.4
4.5
5.0
5.0
3.6
5.0
4.9
5.0
3.5
5.0
5.0
5.0
5.0
5.0
4.6
5.0
4.9
4.5
4.3
5.0
5.0
5.0
3.1
4.2
5.0
5.0
5.0
3.3
3.0
5.0
5.0
5.0
5.0
5.0
5.0
5.0
5.0
2.4
5.0
4.8
5.0
5.0
5.0
5.0
5.0
2.5
5.0
5.0
2.7
5.0
4.7
4.9
2.4
5.0
5.0
3.7
5.0
5.0
5.0
5.0
5.0
2.4
3.7
4.6
3.3
5.0
4.2
5.0
4.2
4.4
5.0
5.0
5.0
3.3
5.0
4.4
4.4
4.2
5.0
4.5
5.0
5.0
3.7
3.8
2.8
5.0
5.0
4.3
4.5
5.0
5.0
3.4
2.7
4.4
5.0
3.6
2.6
3.7
5.0
5.0
3.8
5.0
5.0
5.0
3.7
5.0
4.6
4.0
5.0
2.3
5.0
4.1
4.9
4.7
4.8
5.0
4.5
5.0
5.0
5.0
2.1
4.8
4.6
5.0
5.0
5.0
3.5
5.0
5.0
4.3
3.4
5.0
4.7
2.9
4.5
5.0
4.5
2.3
4.4
5.0
5.0
5.0
5.0
3.6
5.0
4.7
4.7
5.0
3.8
5.0
5.0
4.7
2.9
5.0
4.7
4.3
5.0
5.0
5.0
5.0
5.0
5.0
4.9
4.8
5.0
3.3
5.0
5.0
5.0
5.0
5.0
4.5
3.8
5.0
5.0
3.6
5.0
3.3
5.0
5.0
5.0
5.0
5.0
5.0
4.6
5.0
5.0
5.0
5.0
5.0
3.5
5.0
4.7
3.7
5.0
5.0
5.0
4.4
4.1
3.1
5.0
4.2
3.4
4.3
3.6
4.6
4.6
4.4
5.0
4.2
5.0
5.0
5.0
4.9
4.3
5.0
4.2
4.7
5.0
5.0
4.7
2.3
4.6
4.1
4.8
4.9
2.1
4.5
5.0
5.0
5.0
3.2
5.0
3.7
5.0
2.4
4.7
3.7
5.0
5.0
3.9
4.5
5.0
5.0
5.0
5.0
5.0
4.9
4.8
4.5
4.4
4.8
4.0
4.2
5.0
5.0
4.4
5.0
5.0
3.0
5.0
5.0
3.2
4.6
2.4
4.6
5.0
3.9
5.0
5.0
3.2
4.9
3.4
5.0
5.0
5.0
2.4
5.0
5.0
4.4
5.0
5.0
5.0
5.0
4.8
5.0
5.0
5.0
4.3
4.2
5.0
5.0
3.5
3.4
4.7
4.6
5.0
5.0
5.0
4.2
5.0
3.4
4.0
5.0
5.0
5.0
5.0
5.0
4.7
3.8
4.7
5.0
5.0
4.7
5.0
5.0
4.5
5.0
3.5
5.0
5.0
5.0
5.0
3.8
2.6
4.9
5.0
4.5
5.0
5.0
5.0
4.8
5.0
4.3
5.0
5.0
3.3
5.0
3.8
5.0
5.0
5.0
5.0
2.6
3.6
5.0
5.0
5.0
4.9
3.8
4.8
4.4
2.7
5.0
5.0
4.0
5.0
2.9
4.1
5.0
4.5
4.9
5.0
2.5
5.0
5.0
4.9
5.0
4.9
5.0
2.7
3.4
4.6
5.0
4.8
4.9
5.0
4.8
4.8
4.5
5.0
4.0
4.8
5.0
2.6
2.6
5.0
4.4
4.7
5.0
5.0
5.0
5.0
3.0
3.8
5.0
5.0
3.8
4.4
4.4
5.0
4.6
5.0
4.8
5.0
4.4
5.0
5.0
5.0
5.0
5.0
5.0
4.3
5.0
5.0
4.9
2.4
5.0
5.0
4.9
5.0
5.0
4.1
4.0
5.0
4.4
4.9
3.3
5.0
5.0
5.0
4.8
5.0
4.0
5.0
5.0
3.4
5.0
5.0
5.0
5.0
3.1
5.0
5.0
5.0
4.2
2.4
2.9
5.0
4.7
5.0
3.8
4.7
5.0
3.6
4.7
2.6
4.8
5.0
4.8
5.0
4.7
5.0
5.0
4.6
5.0
5.0
5.0
5.0
2.3
5.0
5.0
4.5
5.0
5.0
5.0
3.3
3.5
5.0
4.2
3.0
3.2
4.3
5.0
4.2
5.0
5.0
5.0
3.3
5.0
5.0
5.0
4.2
5.0
5.0
5.0
4.8
5.0
5.0
3.7
2.5
4.7
4.9
5.0
5.0
5.0
5.0
5.0
4.8
5.0
4.8
5.0
4.4
5.0
5.0
5.0
3.9
4.5
3.1
4.0
4.7
2.8
4.9
3.7
4.4
5.0
3.5
4.6
5.0
5.0
5.0
5.0
4.0
5.0
4.6
5.0
5.0
5.0
5.0
4.7
4.2
5.0
5.0
5.0
5.0
4.5
5.0
4.5
5.0
5.0
5.0
5.0
4.4
5.0
4.3
2.9
5.0
4.5
5.0
3.6
5.0
5.0
4.5
3.2
4.9
4.7
5.0
4.3
5.0
5.0
3.9
5.0
5.0
5.0
5.0
4.4
5.0
5.0
5.0
5.0
5.0
4.8
2.6
2.4
5.0
5.0
4.3
5.0
5.0
5.0
4.7
2.7
5.0
4.4
5.0
5.0
5.0
4.5
5.0
2.5
5.0
5.0
5.0
2.3
4.4
3.8
5.0
4.0
5.0
5.0
4.8
5.0
5.0
3.4
5.0
4.4
3.4
5.0
5.0
5.0
5.0
5.0
2.3
5.0
5.0
5.0
5.0
4.5
5.0
4.4
5.0
5.0
2.8
3.6
3.2
4.9
3.8
5.0
5.0
2.8
5.0
4.9
4.6
5.0
5.0
5.0
5.0
4.3
5.0
4.5
5.0
4.9
5.0
3.3
5.0
4.8
5.0
5.0
5.0
5.0
5.0
3.4
5.0
3.4
3.2
4.0
5.0
5.0
5.0
2.5
5.0
4.6
5.0
5.0
4.9
5.0
4.4
2.5
2.6
5.0
5.0
4.4
4.5
3.7
4.4
5.0
3.6
3.2
4.9
4.8
3.3
5.0
4.6
3.2
5.0
5.0
4.8
5.0
4.8
5.0
5.0
4.2
4.3
4.8
4.5
5.0
5.0
5.0
5.0
5.0
5.0
5.0
4.7
5.0
3.5
4.4
5.0
5.0
5.0
4.4
4.3
4.6
5.0
3.4
4.9
4.8
4.7
5.0
5.0
2.4
4.2
4.1
2.5
2.9
5.0
4.1
5.0
5.0
2.3
4.4
4.3
4.4
4.8
5.0
5.0
5.0
2.3
3.3
4.9
5.0
5.0
5.0
4.9
5.0
5.0
5.0
5.0
5.0
2.6
5.0
5.0
3.2
5.0
5.0
4.3
5.0
5.0
2.8
4.6
4.6
5.0
2.5
4.3
5.0
5.0
3.2
4.5
5.0
5.0
4.2
4.8
3.6
5.0
3.7
3.3
5.0
3.1
4.7
5.0
5.0
5.0
4.4
4.0
4.8
4.3
5.0
5.0
3.6
5.0
5.0
5.0
5.0
4.7
4.4
5.0
4.6
2.7
4.0
5.0
2.5
5.0
3.4
4.0
4.5
4.9
5.0
4.4
4.2
4.5
3.8
5.0
5.0
5.0
2.3
4.8
4.6
2.3
4.6
5.0
3.4
3.9
5.0
5.0
3.3
5.0
4.5
5.0
5.0
5.0
5.0
4.6
5.0
5.0
5.0
5.0
5.0
5.0
4.4
3.3
4.3
4.9
5.0
4.7
5.0
5.0
5.0
4.1
5.0
5.0
5.0
4.2
4.9
5.0
5.0
3.5
5.0
4.3
5.0
3.2
5.0
4.8
12583:
5.0
3.5
2.5
5.0
3.7
4.4
3.3
12584:
5.0
3.5
3.5
5.0
4.8
3.8
4.7
3.4
5.0
5.0
5.0
4.5
5.0
12585:
5.0
2.6
4.7
5.0
3.9
5.0
2.6
4.0
12586:
4.9
5.0
5.0
3.3
5.0
2.6
5.0
4.6
5.0
5.0
4.5
4.9
5.0
5.0
5.0
5.0
5.0
2.4
4.4
4.3
3.8
2.6
5.0
4.3
2.5
5.0
3.3
5.0
4.5
3.4
2.3
4.6
4.8
5.0
5.0
4.6
5.0
5.0
5.0
5.0
3.5
4.9
3.3
5.0
5.0
5.0
5.0
5.0
5.0
5.0
5.0
5.0
5.0
5.0
3.6
5.0
5.0
5.0
5.0
4.5
12587:
4.3
5.0
4.5
5.0
5.0
5.0
5.0
4.9
5.0
5.0
5.0
5.0
5.0
5.0
5.0
5.0
5.0
5.0
5.0
5.0
5.0
5.0
5.0
4.3
4.5
5.0
3.3
5.0
4.6
4.7
5.0
4.8
5.0
4.9
5.0
4.5
5.0
5.0
5.0
4.0
3.7
4.3
5.0
5.0
5.0
5.0
3.6
4.4
4.9
12588:
3.8
2.9
5.0
2.1
5.0
4.8
5.0
3.3
12589:
5.0
4.3
5.0
4.4
1259:
5.0
5.0
5.0
4.9
5.0
5.0
5.0
5.0
4.6
5.0
3.5
4.9
4.5
4.9
5.0
2.3
4.3
5.0
4.0
4.4
5.0
4.8
5.0
5.0
5.0
12590:
2.4
4.5
12591:
4.0
5.0
4.5
3.5
4.6
5.0
3.8
5.0
4.6
5.0
5.0
4.2
4.3
5.0
5.0
4.4
4.1
4.5
4.6
4.7
2.4
3.9
5.0
5.0
4.2
5.0
3.0
5.0
4.7
3.7
5.0
3.2
4.3
5.0
4.6
5.0
5.0
3.8
5.0
4.1
5.0
5.0
5.0
3.5
4.7
4.0
5.0
4.3
4.7
4.8
4.3
5.0
4.6
5.0
4.7
3.2
4.3
4.6
2.9
2.3
3.9
5.0
4.1
5.0
2.5
5.0
2.2
5.0
5.0
3.8
5.0
3.8
5.0
5.0
3.5
5.0
3.0
4.6
5.0
5.0
3.3
4.1
5.0
5.0
3.0
5.0
4.8
5.0
4.5
5.0
3.8
5.0
4.9
5.0
3.5
4.6
5.0
5.0
5.0
12592:
5.0
2.9
4.6
3.2
2.7
4.4
3.8
4.8
4.4
5.0
5.0
3.8
2.7
12593:
4.7
4.1
5.0
5.0
3.7
5.0
4.9
5.0
4.4
4.4
2.3
5.0
5.0
5.0
5.0
4.6
5.0
5.0
4.8
3.2
5.0
4.9
4.0
4.5
5.0
5.0
4.9
5.0
5.0
5.0
5.0
4.2
5.0
4.2
5.0
2.7
5.0
4.3
4.5
5.0
4.7
2.9
5.0
4.5
5.0
5.0
4.9
5.0
4.0
3.1
5.0
5.0
5.0
5.0
4.8
4.9
4.0
5.0
5.0
3.8
4.8
4.9
4.8
5.0
5.0
4.4
5.0
2.8
4.5
4.8
5.0
5.0
4.3
2.4
4.7
12594:
5.0
12595:
5.0
5.0
3.5
4.6
4.6
4.8
5.0
5.0
4.0
5.0
12596:
4.4
3.6
2.9
3.9
4.9
4.3
5.0
5.0
4.2
5.0
3.8
5.0
4.9
2.7
2.7
3.2
5.0
2.5
5.0
4.2
4.0
3.6
5.0
2.2
2.7
2.9
3.5
3.1
4.7
4.8
2.9
5.0
5.0
12597:
4.6
2.5
12598:
5.0
4.4
4.4
4.5
4.6
5.0
4.3
4.2
5.0
3.7
3.7
5.0
5.0
5.0
4.4
3.9
12599:
5.0
5.0
5.0
4.8
5.0
5.0
4.7
5.0
5.0
4.4
5.0
5.0
5.0
5.0
5.0
5.0
4.5
126:
2.4
4.7
5.0
5.0
2.7
3.5
3.3
4.1
3.6
5.0
5.0
3.4
3.3
3.6
5.0
5.0
2.4
2.7
3.6
2.8
5.0
3.8
4.3
5.0
5.0
5.0
4.7
3.7
3.2
3.3
5.0
4.8
3.9
1260:
3.0
4.4
5.0
4.7
4.3
5.0
3.0
3.6
4.6
5.0
2.5
3.5
3.0
12600:
3.3
4.7
4.0
5.0
3.8
3.9
4.3
3.4
5.0
4.2
5.0
3.9
4.7
2.8
3.5
4.0
5.0
5.0
5.0
5.0
4.1
4.4
5.0
4.8
5.0
5.0
3.7
5.0
5.0
4.0
4.9
5.0
5.0
5.0
4.8
4.4
5.0
5.0
4.8
5.0
4.2
5.0
2.9
3.7
3.6
5.0
5.0
5.0
3.4
4.6
4.1
4.9
3.5
5.0
5.0
3.4
4.3
5.0
5.0
2.2
3.0
5.0
5.0
5.0
5.0
5.0
5.0
3.9
5.0
2.4
5.0
4.2
5.0
4.8
4.4
5.0
4.8
5.0
5.0
4.4
4.6
5.0
3.6
5.0
3.7
4.6
3.4
3.3
4.7
4.4
4.2
5.0
4.7
2.7
3.7
5.0
4.5
3.2
5.0
4.8
4.1
4.4
5.0
5.0
5.0
5.0
5.0
5.0
5.0
3.7
3.3
5.0
5.0
5.0
2.3
5.0
4.9
4.8
5.0
4.6
5.0
4.5
5.0
4.9
4.3
3.5
4.8
3.8
4.2
3.8
5.0
4.6
3.9
4.1
4.2
5.0
4.2
5.0
4.6
4.9
5.0
4.8
12601:
5.0
5.0
5.0
4.5
3.2
3.3
5.0
4.0
3.7
5.0
5.0
5.0
5.0
5.0
3.5
5.0
4.4
3.8
5.0
5.0
3.3
5.0
3.3
5.0
4.6
5.0
5.0
5.0
5.0
5.0
3.9
12602:
4.0
4.1
2.7
2.5
5.0
12603:
3.1
12604:
4.6
3.2
2.8
4.1
2.5
5.0
4.3
5.0
12605:
5.0
3.8
5.0
3.8
5.0
5.0
4.8
3.5
5.0
5.0
5.0
5.0
5.0
4.3
4.3
5.0
3.7
2.4
5.0
2.3
5.0
5.0
5.0
4.6
5.0
3.3
5.0
4.8
5.0
2.3
3.3
5.0
4.0
5.0
5.0
5.0
5.0
5.0
5.0
5.0
5.0
4.2
5.0
4.2
5.0
5.0
5.0
5.0
5.0
4.5
5.0
5.0
5.0
4.6
4.9
5.0
5.0
5.0
5.0
3.5
5.0
5.0
2.4
2.2
5.0
3.3
4.8
4.8
5.0
5.0
4.7
5.0
5.0
5.0
5.0
5.0
5.0
3.6
5.0
5.0
4.9
4.8
5.0
3.3
5.0
5.0
3.6
5.0
2.2
4.7
5.0
4.9
5.0
5.0
5.0
3.7
5.0
5.0
5.0
4.2
4.8
4.6
2.6
5.0
5.0
4.5
5.0
5.0
4.4
2.5
4.8
3.4
5.0
5.0
2.3
4.7
5.0
5.0
5.0
5.0
5.0
2.7
5.0
5.0
5.0
5.0
5.0
5.0
4.8
3.1
4.1
5.0
3.6
5.0
3.7
5.0
3.5
2.9
5.0
4.1
4.4
5.0
2.9
4.4
5.0
4.8
4.5
4.8
5.0
5.0
5.0
4.5
5.0
2.3
5.0
3.3
3.4
5.0
2.5
3.6
5.0
5.0
2.7
4.5
4.7
5.0
5.0
5.0
4.7
5.0
5.0
4.2
5.0
5.0
5.0
5.0
5.0
5.0
5.0
5.0
5.0
5.0
4.3
5.0
5.0
5.0
5.0
4.9
4.7
4.9
5.0
5.0
4.4
5.0
3.9
4.8
5.0
5.0
5.0
5.0
4.9
2.5
5.0
4.0
5.0
5.0
5.0
3.3
4.5
4.2
4.2
5.0
4.2
2.4
4.6
5.0
5.0
4.3
5.0
5.0
5.0
2.8
3.4
5.0
5.0
2.5
4.4
5.0
5.0
3.9
5.0
5.0
5.0
5.0
5.0
5.0
4.6
5.0
5.0
2.5
5.0
5.0
5.0
3.9
5.0
5.0
4.3
5.0
3.9
5.0
5.0
5.0
4.5
5.0
4.4
5.0
4.5
12606:
5.0
5.0
4.6
12607:
5.0
5.0
12608:
3.9
5.0
3.4
12609:
4.7
3.0
5.0
3.5
4.3
4.2
2.4
4.8
4.6
1261:
3.9
5.0
4.5
5.0
5.0
3.3
2.9
5.0
5.0
4.4
4.3
2.4
4.5
5.0
3.5
4.0
3.3
5.0
4.0
4.7
4.9
5.0
5.0
12610:
2.5
2.3
12611:
5.0
5.0
5.0
12612:
4.4
5.0
2.3
5.0
5.0
4.1
5.0
5.0
4.5
5.0
3.8
4.9
3.6
5.0
5.0
5.0
4.0
4.5
2.3
5.0
5.0
4.8
5.0
5.0
5.0
5.0
5.0
4.6
5.0
4.4
5.0
3.6
4.3
4.2
3.4
3.7
5.0
4.4
5.0
5.0
4.4
2.3
3.4
5.0
4.4
5.0
4.6
3.0
3.9
4.3
3.7
2.9
5.0
4.9
3.6
5.0
5.0
5.0
4.8
4.7
4.1
3.6
3.5
4.9
5.0
5.0
4.7
4.9
5.0
4.2
4.5
5.0
5.0
4.4
5.0
4.6
5.0
5.0
5.0
5.0
4.7
4.7
3.4
4.5
5.0
5.0
5.0
3.5
2.7
5.0
5.0
4.7
5.0
2.8
5.0
2.5
5.0
4.1
5.0
12613:
5.0
4.3
5.0
4.5
12614:
2.5
5.0
12615:
5.0
5.0
5.0
5.0
12616:
4.2
2.8
2.6
2.5
4.3
12617:
5.0
5.0
5.0
5.0
5.0
5.0
5.0
5.0
5.0
5.0
5.0
2.7
5.0
5.0
5.0
12618:
4.6
4.4
5.0
3.0
5.0
5.0
4.8
4.3
5.0
5.0
5.0
5.0
5.0
12619:
5.0
5.0
2.5
4.4
5.0
5.0
5.0
5.0
1262:
4.0
4.5
5.0
3.9
5.0
5.0
5.0
5.0
2.3
4.3
2.6
5.0
4.1
4.7
4.6
4.8
4.5
4.2
4.9
5.0
5.0
5.0
5.0
4.8
3.8
4.8
3.6
5.0
4.6
5.0
2.3
3.7
4.5
4.9
5.0
5.0
4.8
5.0
4.3
4.9
4.2
5.0
5.0
5.0
5.0
3.0
4.3
4.0
4.3
3.7
3.0
5.0
3.7
5.0
4.7
2.7
5.0
5.0
3.7
4.4
3.6
3.6
5.0
3.4
4.7
4.8
3.8
3.3
5.0
4.3
3.3
5.0
2.7
5.0
3.9
3.5
5.0
4.4
3.7
3.8
12620:
4.7
3.9
2.7
4.0
5.0
3.9
3.6
3.5
2.3
5.0
3.3
2.8
2.4
2.6
2.6
3.3
5.0
5.0
2.7
2.4
3.8
5.0
3.3
4.7
3.9
4.9
4.5
12621:
4.7
4.7
4.9
12622:
4.0
4.8
5.0
5.0
4.9
3.8
4.3
5.0
5.0
3.3
5.0
4.8
4.7
2.4
3.7
12623:
2.5
5.0
5.0
4.5
5.0
5.0
5.0
5.0
5.0
5.0
5.0
3.3
5.0
4.6
4.5
5.0
5.0
5.0
5.0
4.6
3.7
5.0
5.0
4.8
4.8
5.0
5.0
5.0
3.9
5.0
4.7
4.7
5.0
5.0
5.0
4.8
4.4
5.0
5.0
3.3
3.5
4.3
4.5
5.0
5.0
3.2
5.0
4.5
5.0
4.9
5.0
5.0
5.0
3.7
5.0
5.0
4.2
12624:
5.0
3.2
4.9
5.0
4.7
4.3
4.7
3.6
5.0
5.0
5.0
12625:
2.3
2.3
12626:
2.2
3.0
4.9
5.0
2.7
5.0
4.5
5.0
4.4
4.2
3.8
4.4
3.6
3.1
4.7
4.0
4.6
5.0
5.0
4.8
5.0
3.7
2.7
3.4
5.0
4.9
3.3
4.3
5.0
4.6
4.6
4.2
5.0
12627:
5.0
5.0
3.0
5.0
5.0
4.4
5.0
2.6
4.0
5.0
5.0
5.0
4.8
4.5
3.6
5.0
5.0
4.6
5.0
5.0
5.0
5.0
4.7
4.7
5.0
5.0
4.3
5.0
4.8
3.9
5.0
5.0
3.6
12628:
5.0
2.9
5.0
3.3
5.0
12629:
2.3
4.7
5.0
5.0
5.0
5.0
1263:
4.0
3.9
5.0
4.8
12630:
4.0
12631:
4.0
5.0
4.2
2.5
12632:
4.5
5.0
2.2
2.5
12633:
4.4
4.5
4.5
5.0
3.3
5.0
4.4
4.3
5.0
4.7
5.0
3.8
5.0
3.7
3.2
5.0
5.0
5.0
5.0
5.0
5.0
5.0
5.0
5.0
4.3
4.4
4.0
4.7
4.4
5.0
4.5
3.4
4.8
5.0
4.4
5.0
3.7
5.0
3.7
5.0
5.0
3.9
3.8
5.0
4.9
5.0
5.0
5.0
5.0
4.9
4.0
4.3
3.3
4.9
5.0
5.0
4.7
5.0
4.9
5.0
4.3
5.0
4.3
4.8
4.5
4.7
5.0
5.0
4.8
4.3
3.9
12634:
5.0
5.0
4.6
4.4
4.7
4.9
5.0
2.3
3.9
4.3
4.3
5.0
3.7
4.5
5.0
5.0
3.2
4.2
4.3
3.3
5.0
5.0
4.9
12635:
5.0
4.4
12636:
5.0
5.0
12637:
4.6
5.0
5.0
5.0
4.3
5.0
4.9
5.0
12638:
5.0
2.8
5.0
2.2
3.3
5.0
12639:
4.4
4.2
5.0
4.2
4.7
5.0
5.0
5.0
4.1
2.5
4.7
5.0
4.8
3.8
5.0
3.5
4.0
4.6
5.0
3.0
3.4
4.4
5.0
2.9
3.5
5.0
3.3
4.9
5.0
3.4
5.0
5.0
5.0
5.0
4.9
5.0
4.2
2.2
5.0
5.0
5.0
5.0
5.0
2.6
5.0
3.2
3.5
5.0
2.8
4.9
2.4
5.0
5.0
3.7
4.6
5.0
3.7
3.4
5.0
5.0
5.0
5.0
5.0
3.8
5.0
5.0
5.0
4.8
5.0
3.7
5.0
4.4
5.0
5.0
4.8
3.9
3.2
3.9
5.0
1264:
4.6
5.0
4.2
5.0
5.0
4.9
4.7
5.0
5.0
5.0
5.0
3.7
5.0
3.7
2.6
5.0
5.0
4.1
4.1
5.0
3.2
5.0
5.0
5.0
5.0
5.0
2.7
2.2
4.7
5.0
5.0
3.2
4.9
5.0
4.1
5.0
4.0
5.0
5.0
4.6
4.0
4.8
5.0
5.0
5.0
4.8
5.0
5.0
5.0
5.0
5.0
3.8
3.3
5.0
3.6
4.2
4.4
4.2
2.2
4.6
5.0
3.3
5.0
5.0
5.0
3.7
5.0
4.7
5.0
2.3
4.8
5.0
4.9
2.9
4.5
5.0
5.0
5.0
3.2
5.0
4.8
3.7
4.7
5.0
4.6
3.6
5.0
3.7
5.0
2.7
4.3
4.2
5.0
3.9
5.0
4.7
5.0
5.0
2.6
4.4
4.2
5.0
4.9
5.0
3.4
4.8
5.0
4.0
5.0
4.4
5.0
5.0
4.0
3.6
5.0
3.8
5.0
5.0
5.0
5.0
2.2
3.6
5.0
3.9
5.0
4.3
2.5
5.0
4.9
4.2
5.0
4.4
3.7
4.3
4.2
2.9
4.4
5.0
4.7
5.0
5.0
4.3
5.0
3.8
5.0
4.9
4.6
4.3
4.8
4.8
4.3
4.9
5.0
3.5
5.0
4.5
5.0
4.3
4.9
5.0
5.0
5.0
4.9
3.3
5.0
3.8
12640:
4.5
3.6
5.0
3.5
5.0
5.0
3.3
3.5
5.0
12641:
2.3
5.0
2.6
5.0
2.2
3.4
3.1
12642:
4.4
12643:
4.7
4.4
4.8
4.3
5.0
2.2
12645:
4.2
5.0
3.6
3.3
5.0
4.8
3.4
5.0
5.0
5.0
5.0
5.0
4.4
5.0
5.0
5.0
5.0
5.0
5.0
3.7
4.9
12646:
5.0
4.7
5.0
5.0
4.7
12647:
5.0
5.0
5.0
4.8
12648:
5.0
5.0
5.0
4.6
2.6
5.0
5.0
5.0
4.4
5.0
2.9
4.4
5.0
5.0
4.5
3.6
5.0
4.6
5.0
4.4
5.0
5.0
5.0
5.0
5.0
5.0
5.0
5.0
5.0
4.5
5.0
5.0
2.9
12649:
3.9
2.6
4.3
1265:
2.2
4.0
4.7
5.0
2.8
12651:
3.8
2.6
4.6
2.9
5.0
4.7
5.0
3.5
12652:
4.8
5.0
5.0
3.8
5.0
4.9
5.0
5.0
4.9
5.0
2.7
3.8
3.5
3.2
5.0
5.0
5.0
5.0
5.0
5.0
4.3
5.0
5.0
5.0
12653:
3.5
2.6
2.5
3.4
2.1
2.8
3.4
5.0
3.5
5.0
3.0
4.6
2.6
2.9
3.4
4.8
4.9
3.1
12654:
3.5
3.5
3.6
12656:
2.4
4.7
4.3
12658:
4.5
5.0
5.0
5.0
2.4
5.0
5.0
5.0
5.0
4.3
5.0
5.0
5.0
4.0
4.8
5.0
5.0
5.0
5.0
5.0
5.0
3.2
5.0
3.6
5.0
5.0
5.0
5.0
5.0
5.0
5.0
4.9
4.8
4.8
12659:
5.0
1266:
5.0
4.8
3.6
4.9
5.0
5.0
4.6
5.0
5.0
4.6
3.8
3.8
4.9
3.2
4.9
4.5
3.9
3.7
5.0
5.0
3.0
3.1
5.0
2.9
3.3
4.2
4.4
5.0
4.1
4.4
4.9
3.8
4.9
3.5
4.0
5.0
3.2
5.0
2.8
5.0
4.7
4.3
3.3
5.0
5.0
4.1
3.1
4.4
3.7
4.4
5.0
4.7
5.0
4.4
5.0
4.6
5.0
2.4
2.1
3.5
12660:
4.8
5.0
2.1
5.0
4.6
5.0
3.6
3.2
3.3
3.1
3.8
5.0
2.8
2.8
4.5
5.0
5.0
3.0
3.2
5.0
4.8
4.8
2.9
5.0
5.0
2.6
2.9
2.2
4.8
5.0
3.0
5.0
4.7
2.9
3.7
4.6
2.3
3.9
3.5
4.5
2.6
3.6
3.9
4.4
5.0
3.5
3.1
2.6
5.0
2.7
2.6
2.4
5.0
5.0
5.0
2.5
5.0
3.9
2.8
3.4
2.6
4.8
3.8
2.5
4.7
4.4
5.0
2.7
4.3
4.6
5.0
3.2
5.0
5.0
2.9
4.9
2.7
4.1
3.7
4.6
2.9
5.0
2.3
5.0
2.3
5.0
4.9
3.9
3.6
5.0
2.7
2.3
5.0
5.0
4.3
3.1
4.7
5.0
3.2
4.5
2.2
5.0
2.1
2.7
5.0
2.4
4.0
3.4
2.4
4.6
5.0
5.0
2.8
2.6
4.3
2.3
3.7
5.0
2.4
4.1
5.0
2.8
3.4
5.0
2.6
2.9
5.0
4.0
3.7
2.8
4.0
3.1
3.7
12661:
2.9
3.6
3.9
3.6
3.5
4.4
5.0
4.8
4.0
3.3
5.0
5.0
5.0
5.0
2.5
2.5
5.0
5.0
4.1
3.4
3.3
2.7
4.8
5.0
3.3
5.0
3.1
5.0
5.0
5.0
4.8
4.9
4.0
4.8
2.9
5.0
4.6
2.2
3.9
2.4
5.0
5.0
5.0
5.0
5.0
5.0
4.7
12662:
3.5
2.6
4.9
3.9
5.0
3.4
3.8
5.0
4.6
4.7
2.8
2.1
5.0
4.6
2.9
4.4
3.5
4.6
2.5
5.0
4.6
5.0
2.4
4.5
5.0
5.0
3.8
5.0
3.9
5.0
3.3
5.0
5.0
4.7
4.2
5.0
3.7
5.0
2.4
4.5
4.9
2.5
2.4
5.0
3.0
4.6
3.7
12663:
2.7
5.0
2.2
3.6
2.4
3.0
2.6
4.9
2.3
3.7
2.6
4.2
2.3
3.8
5.0
4.9
4.2
2.3
12664:
3.6
4.7
5.0
4.3
5.0
12665:
5.0
2.4
3.9
5.0
12666:
3.8
4.6
2.6
5.0
5.0
12667:
5.0
2.1
2.1
5.0
5.0
3.6
3.6
5.0
5.0
4.6
3.3
5.0
4.2
5.0
4.4
5.0
3.9
4.7
2.7
5.0
4.8
3.4
3.2
4.9
2.7
5.0
4.9
4.1
3.4
3.8
5.0
4.9
4.6
4.5
3.5
3.0
2.6
2.7
4.3
4.7
4.9
3.4
4.0
3.6
4.3
2.8
2.5
4.9
2.4
5.0
2.4
3.3
4.3
3.2
5.0
5.0
5.0
4.6
3.5
3.7
5.0
2.4
5.0
4.3
4.4
5.0
5.0
4.0
4.1
5.0
4.6
4.7
2.4
5.0
4.8
12668:
2.1
3.4
4.9
5.0
2.5
2.6
4.2
2.7
3.8
3.5
5.0
4.6
2.3
4.7
5.0
4.0
5.0
4.3
5.0
4.3
5.0
5.0
5.0
4.5
5.0
4.9
3.4
5.0
5.0
5.0
5.0
5.0
5.0
2.6
4.8
5.0
3.4
4.3
4.8
5.0
3.8
4.7
2.8
5.0
5.0
4.0
4.2
3.0
5.0
5.0
5.0
4.9
3.6
5.0
4.2
4.3
5.0
5.0
4.8
4.9
2.5
5.0
4.7
4.9
5.0
3.8
4.9
5.0
5.0
5.0
4.0
4.8
4.5
5.0
5.0
5.0
4.2
5.0
5.0
5.0
5.0
4.9
3.9
3.5
5.0
4.3
4.2
5.0
2.1
4.6
5.0
5.0
3.3
3.2
4.4
5.0
5.0
4.6
5.0
5.0
5.0
5.0
4.9
2.2
4.8
4.2
5.0
5.0
5.0
4.6
4.9
5.0
5.0
5.0
4.6
5.0
4.0
5.0
5.0
5.0
4.6
2.3
5.0
5.0
3.8
5.0
5.0
4.3
5.0
3.3
5.0
3.6
5.0
5.0
5.0
4.3
5.0
4.1
5.0
5.0
5.0
5.0
5.0
5.0
4.1
4.1
2.6
5.0
5.0
5.0
2.4
5.0
4.4
4.7
5.0
5.0
5.0
2.7
5.0
3.0
4.1
4.9
5.0
5.0
4.4
3.8
2.2
3.0
5.0
3.6
3.4
4.3
5.0
5.0
4.2
5.0
4.6
3.8
4.2
5.0
2.6
4.3
5.0
3.3
12669:
4.8
4.4
2.7
2.2
3.7
4.8
5.0
5.0
5.0
2.1
2.7
1267:
5.0
3.5
3.4
2.8
5.0
5.0
2.2
3.4
5.0
3.4
3.9
4.6
4.4
5.0
2.6
4.6
5.0
5.0
4.0
3.0
4.5
4.6
3.4
3.4
4.7
5.0
5.0
3.7
4.6
3.7
4.9
5.0
3.4
3.7
3.2
4.5
4.5
5.0
4.0
3.8
5.0
5.0
4.9
4.7
3.2
2.3
3.3
5.0
5.0
5.0
5.0
3.4
5.0
4.1
5.0
2.4
2.2
5.0
2.6
5.0
4.1
3.0
2.5
4.0
3.6
5.0
2.6
5.0
3.5
2.7
5.0
5.0
2.2
5.0
4.4
2.5
3.7
4.5
4.5
3.7
3.5
4.6
5.0
5.0
5.0
4.8
4.6
5.0
5.0
3.9
5.0
4.0
3.6
5.0
4.3
5.0
3.8
2.4
5.0
2.2
2.9
5.0
5.0
4.5
4.3
2.6
5.0
5.0
4.0
5.0
4.4
5.0
4.2
5.0
4.2
4.4
2.4
4.3
4.3
2.6
5.0
3.7
5.0
3.7
5.0
2.6
2.7
4.5
4.5
3.5
4.4
4.5
4.1
5.0
4.3
5.0
5.0
5.0
5.0
4.7
2.5
2.4
4.3
5.0
3.6
4.6
4.6
4.9
2.8
5.0
3.2
5.0
5.0
5.0
2.4
5.0
4.6
3.8
2.8
3.3
3.4
3.8
4.3
4.8
4.7
4.8
3.5
4.4
3.2
5.0
3.2
2.3
4.9
3.7
5.0
2.4
5.0
3.6
2.6
4.4
3.4
2.9
4.4
4.3
4.3
4.9
4.4
3.9
4.5
4.3
5.0
5.0
3.9
5.0
4.3
5.0
3.3
3.9
5.0
4.1
4.5
5.0
4.9
4.7
5.0
4.5
3.8
4.7
5.0
3.4
4.7
3.6
3.0
3.8
3.3
4.4
5.0
4.8
4.5
3.6
4.5
4.6
2.6
5.0
5.0
5.0
5.0
4.1
5.0
2.8
4.2
3.8
4.8
4.9
4.3
3.4
5.0
5.0
3.2
5.0
3.1
5.0
4.3
5.0
3.3
5.0
4.3
4.7
3.4
5.0
3.0
4.6
3.0
5.0
5.0
3.4
2.6
5.0
5.0
3.6
3.2
4.4
4.8
2.6
4.7
4.5
4.1
4.8
2.7
2.8
4.8
4.2
5.0
5.0
4.6
5.0
5.0
5.0
4.8
4.1
5.0
5.0
2.5
3.4
5.0
5.0
4.7
2.5
4.9
5.0
5.0
2.3
4.8
4.8
2.2
4.6
5.0
4.5
3.3
2.8
4.4
4.8
5.0
4.5
2.5
3.6
4.4
4.3
4.7
3.8
5.0
5.0
4.4
3.4
4.7
2.9
3.9
4.6
5.0
4.6
5.0
5.0
3.9
4.5
3.6
3.2
4.3
3.6
4.5
4.9
4.5
3.3
5.0
5.0
4.6
4.5
3.6
3.9
5.0
4.6
5.0
3.8
4.6
4.5
3.9
3.7
5.0
2.4
5.0
2.3
5.0
5.0
3.8
3.9
3.6
4.1
4.6
2.3
3.7
3.5
4.4
3.4
3.6
4.7
3.4
3.2
5.0
2.9
2.8
5.0
4.4
5.0
5.0
5.0
3.4
2.7
5.0
4.9
5.0
5.0
4.6
3.9
4.4
3.9
4.9
2.9
4.4
4.8
5.0
5.0
5.0
3.4
4.4
3.6
4.1
4.3
5.0
4.9
5.0
5.0
3.4
5.0
5.0
5.0
5.0
5.0
3.7
5.0
5.0
3.9
4.0
5.0
4.3
5.0
2.8
5.0
3.8
5.0
4.4
5.0
3.3
3.0
3.3
4.9
4.2
3.2
4.6
2.4
4.4
3.4
5.0
4.5
2.8
3.5
5.0
3.5
3.8
4.3
2.4
4.6
2.8
4.4
3.8
2.9
5.0
4.7
4.5
4.4
4.5
5.0
5.0
3.5
5.0
5.0
5.0
4.8
3.1
5.0
3.3
2.2
5.0
5.0
3.0
3.5
4.3
5.0
4.5
2.3
4.4
4.5
3.2
4.1
3.6
2.3
4.9
4.7
5.0
4.0
2.4
4.3
4.8
3.2
4.6
4.0
5.0
3.8
4.2
4.5
5.0
4.9
3.4
5.0
5.0
4.1
4.9
5.0
5.0
4.4
4.6
5.0
5.0
5.0
4.7
4.4
3.0
5.0
2.5
4.2
4.4
2.2
3.6
5.0
2.6
5.0
3.2
5.0
4.0
4.1
3.4
2.4
5.0
4.5
3.4
4.8
5.0
2.8
5.0
4.2
4.5
5.0
2.9
3.3
3.8
2.7
4.6
5.0
5.0
3.8
4.4
5.0
4.7
3.1
5.0
4.5
2.6
5.0
2.7
5.0
2.4
4.4
2.6
5.0
4.6
5.0
3.6
4.8
5.0
4.2
5.0
4.4
4.6
4.8
5.0
2.5
4.0
5.0
3.2
2.5
3.5
3.0
5.0
4.4
4.9
3.2
2.9
5.0
5.0
5.0
2.3
4.5
3.6
5.0
3.9
3.4
5.0
3.2
4.1
5.0
3.8
4.4
5.0
4.8
5.0
4.5
3.4
3.5
2.3
4.2
4.3
2.8
2.9
4.7
4.3
4.9
4.6
4.6
4.8
3.5
3.6
3.4
4.1
3.3
4.8
3.5
2.3
3.2
5.0
3.3
2.9
3.3
3.0
2.9
3.7
3.7
5.0
4.2
4.3
3.2
4.6
5.0
4.1
2.7
2.7
4.5
3.5
3.6
4.5
4.6
4.7
4.6
2.4
4.7
5.0
2.3
3.7
5.0
5.0
5.0
3.4
2.2
2.9
3.7
5.0
4.6
3.9
5.0
5.0
3.6
5.0
5.0
2.8
4.3
4.6
4.4
4.5
5.0
3.7
3.0
4.7
4.4
4.8
2.3
4.4
4.3
5.0
5.0
2.2
2.9
5.0
5.0
4.3
4.9
5.0
5.0
2.1
2.3
3.3
2.7
5.0
5.0
5.0
5.0
4.7
4.7
5.0
5.0
3.3
2.9
3.0
2.7
5.0
2.3
5.0
5.0
3.9
5.0
5.0
4.5
2.5
4.8
4.7
5.0
5.0
4.2
2.3
5.0
4.7
4.8
2.4
5.0
5.0
5.0
5.0
5.0
4.3
5.0
5.0
3.2
3.7
4.2
5.0
2.7
5.0
2.9
3.3
5.0
2.7
5.0
5.0
5.0
4.0
2.9
2.9
4.0
5.0
5.0
5.0
5.0
4.1
5.0
5.0
2.7
5.0
5.0
5.0
4.7
4.5
5.0
3.6
5.0
4.2
4.5
2.9
3.3
4.2
2.5
2.9
2.9
4.6
3.5
5.0
4.5
3.8
5.0
4.3
3.6
5.0
4.1
4.9
3.6
3.6
2.5
5.0
5.0
5.0
4.6
5.0
5.0
2.4
4.5
4.9
5.0
5.0
3.8
5.0
5.0
2.5
4.4
5.0
5.0
4.0
4.3
4.6
4.7
4.9
5.0
5.0
3.9
4.7
5.0
4.5
4.6
5.0
3.4
4.3
5.0
4.1
3.7
3.1
5.0
5.0
3.0
2.3
4.8
5.0
5.0
4.2
3.5
2.1
5.0
4.6
5.0
2.9
3.3
4.1
5.0
3.7
3.7
2.2
2.8
4.5
5.0
3.3
4.6
5.0
3.2
4.6
4.5
4.2
3.1
4.4
5.0
3.3
5.0
4.1
3.6
3.9
4.2
2.4
5.0
2.8
4.4
5.0
5.0
2.4
4.9
5.0
5.0
3.5
4.6
5.0
3.8
5.0
5.0
2.8
5.0
3.9
4.4
4.6
2.8
5.0
5.0
2.5
3.7
4.6
2.6
5.0
4.2
3.1
4.1
4.5
5.0
2.2
3.9
2.3
3.7
5.0
5.0
3.7
5.0
2.4
4.1
5.0
5.0
4.0
5.0
3.7
5.0
2.4
5.0
12670:
5.0
5.0
4.7
5.0
5.0
5.0
5.0
4.3
3.6
5.0
5.0
5.0
5.0
5.0
5.0
4.8
5.0
5.0
5.0
5.0
5.0
5.0
4.6
5.0
4.3
5.0
5.0
5.0
5.0
5.0
5.0
5.0
5.0
5.0
5.0
5.0
5.0
2.2
5.0
5.0
5.0
4.6
5.0
4.8
5.0
5.0
5.0
5.0
2.8
5.0
2.6
5.0
5.0
3.4
5.0
3.5
4.7
5.0
12671:
5.0
2.7
5.0
5.0
5.0
5.0
4.9
5.0
5.0
4.2
5.0
4.3
5.0
5.0
4.9
3.5
2.8
4.9
5.0
5.0
5.0
5.0
5.0
5.0
4.1
5.0
5.0
5.0
3.9
5.0
5.0
5.0
4.3
4.7
4.5
5.0
5.0
2.5
5.0
4.5
5.0
5.0
5.0
5.0
5.0
4.2
4.5
4.4
5.0
5.0
5.0
5.0
4.3
5.0
5.0
5.0
5.0
5.0
5.0
4.1
5.0
5.0
3.8
4.9
5.0
5.0
3.6
5.0
5.0
5.0
3.7
5.0
4.7
4.4
4.7
5.0
5.0
5.0
5.0
4.5
5.0
5.0
5.0
5.0
2.3
5.0
4.3
5.0
2.3
5.0
3.7
5.0
5.0
5.0
5.0
4.1
5.0
4.8
5.0
5.0
5.0
5.0
4.4
4.7
4.9
5.0
5.0
5.0
5.0
5.0
4.6
5.0
5.0
5.0
5.0
5.0
4.6
5.0
5.0
4.9
5.0
5.0
5.0
3.2
5.0
4.5
4.5
5.0
5.0
2.7
5.0
5.0
12672:
5.0
5.0
4.7
5.0
5.0
5.0
4.5
5.0
4.2
4.1
5.0
4.7
5.0
5.0
4.7
5.0
5.0
5.0
2.3
5.0
4.7
4.7
4.3
3.3
5.0
5.0
5.0
4.6
5.0
5.0
4.7
5.0
5.0
3.3
5.0
4.4
3.3
5.0
2.4
4.6
2.6
5.0
3.7
5.0
5.0
2.8
3.6
4.3
3.4
5.0
4.6
5.0
5.0
4.6
5.0
5.0
4.4
4.3
4.2
4.5
5.0
4.9
5.0
4.7
4.2
5.0
4.2
4.3
4.8
5.0
5.0
2.3
5.0
4.3
5.0
5.0
3.0
4.7
5.0
5.0
2.3
4.6
4.6
5.0
3.6
5.0
3.7
5.0
5.0
3.3
5.0
2.8
5.0
5.0
5.0
4.6
5.0
5.0
5.0
5.0
5.0
4.6
5.0
3.9
5.0
5.0
5.0
3.9
4.3
5.0
5.0
5.0
5.0
5.0
2.9
5.0
2.8
3.5
5.0
5.0
5.0
5.0
4.7
4.4
5.0
3.8
4.2
5.0
5.0
3.6
5.0
5.0
4.6
5.0
3.0
5.0
5.0
4.4
3.2
4.6
5.0
3.5
5.0
5.0
5.0
5.0
5.0
5.0
4.6
4.8
4.3
4.3
5.0
5.0
5.0
4.5
4.0
5.0
4.3
4.4
5.0
5.0
5.0
4.3
4.6
5.0
5.0
5.0
4.5
5.0
4.7
5.0
5.0
4.4
5.0
2.2
5.0
5.0
5.0
3.8
5.0
3.2
2.6
4.8
4.0
5.0
3.0
5.0
3.3
5.0
4.8
5.0
5.0
5.0
5.0
5.0
3.4
4.7
4.0
3.3
3.7
5.0
4.7
4.6
3.3
3.8
2.2
5.0
3.6
5.0
5.0
5.0
5.0
5.0
4.2
3.4
4.7
5.0
5.0
5.0
3.9
5.0
5.0
5.0
5.0
5.0
4.6
5.0
5.0
2.2
2.5
3.5
5.0
5.0
5.0
4.7
4.6
5.0
3.7
5.0
5.0
5.0
5.0
4.0
5.0
5.0
5.0
5.0
4.7
4.8
5.0
4.8
4.7
2.9
4.6
5.0
3.8
2.3
5.0
5.0
4.8
4.6
5.0
2.2
4.2
5.0
5.0
5.0
5.0
4.8
5.0
4.4
4.7
5.0
5.0
4.2
5.0
5.0
5.0
5.0
5.0
4.3
2.5
4.8
5.0
5.0
5.0
5.0
5.0
5.0
5.0
3.6
3.6
5.0
4.1
4.8
5.0
4.4
2.2
3.7
2.3
5.0
5.0
5.0
5.0
5.0
2.8
2.5
5.0
5.0
5.0
5.0
3.4
2.9
4.7
5.0
5.0
2.3
3.8
2.7
5.0
5.0
5.0
5.0
5.0
4.6
5.0
5.0
2.6
5.0
4.6
5.0
5.0
5.0
5.0
5.0
5.0
5.0
2.9
5.0
5.0
3.6
5.0
4.8
3.5
5.0
4.5
5.0
5.0
5.0
5.0
4.4
5.0
4.4
4.8
5.0
5.0
5.0
5.0
4.6
5.0
2.9
5.0
5.0
4.0
5.0
5.0
5.0
5.0
3.4
4.1
2.7
5.0
5.0
5.0
5.0
4.3
4.0
5.0
4.8
5.0
4.9
4.6
4.9
5.0
2.8
4.6
4.4
5.0
5.0
5.0
3.6
4.3
3.2
4.8
4.7
4.6
4.5
4.5
4.9
4.0
5.0
3.6
4.7
5.0
3.8
4.7
3.6
4.6
5.0
4.5
5.0
4.5
5.0
5.0
4.3
4.2
5.0
5.0
3.2
5.0
3.9
5.0
4.2
5.0
4.4
3.6
3.7
4.7
4.3
3.2
4.6
5.0
5.0
4.0
4.9
5.0
4.4
5.0
3.6
5.0
5.0
5.0
2.9
4.6
3.6
3.9
2.4
5.0
3.7
5.0
4.8
5.0
3.9
5.0
4.9
4.7
5.0
5.0
3.6
12673:
4.7
3.3
5.0
2.3
3.7
2.3
4.9
2.1
4.6
3.7
3.5
5.0
12674:
3.4
4.2
4.3
4.2
5.0
4.0
3.4
3.1
12675:
5.0
5.0
2.3
5.0
5.0
3.8
5.0
5.0
5.0
3.1
2.4
5.0
5.0
4.4
3.1
5.0
4.7
3.4
5.0
3.7
4.8
5.0
5.0
5.0
5.0
4.8
5.0
5.0
3.3
5.0
2.1
4.9
4.5
5.0
5.0
4.2
5.0
4.4
4.3
5.0
4.2
5.0
4.9
5.0
2.8
4.1
5.0
5.0
5.0
5.0
4.7
4.8
5.0
3.5
4.8
5.0
3.9
5.0
5.0
5.0
5.0
5.0
5.0
3.9
4.2
5.0
4.6
4.8
4.5
4.3
5.0
12676:
5.0
5.0
4.7
5.0
5.0
5.0
5.0
5.0
5.0
5.0
4.5
2.6
2.8
5.0
2.6
5.0
4.2
5.0
4.6
4.6
4.7
3.6
4.9
4.5
4.3
5.0
5.0
5.0
4.0
5.0
5.0
5.0
5.0
4.7
5.0
5.0
4.6
2.7
5.0
3.4
4.9
3.9
4.2
5.0
4.9
5.0
4.2
2.2
5.0
5.0
2.7
3.6
4.4
4.9
5.0
5.0
5.0
5.0
5.0
5.0
5.0
3.6
5.0
3.9
5.0
5.0
4.8
4.2
2.3
4.5
2.9
5.0
2.6
5.0
5.0
5.0
4.7
4.2
3.7
3.5
3.5
5.0
4.1
5.0
3.8
4.8
4.4
2.7
5.0
4.3
4.3
5.0
5.0
5.0
4.5
5.0
3.8
4.8
4.8
3.6
5.0
5.0
5.0
5.0
4.0
5.0
5.0
4.1
4.7
12677:
4.4
5.0
5.0
4.5
5.0
3.5
5.0
2.5
3.9
4.8
5.0
5.0
5.0
5.0
5.0
5.0
5.0
5.0
5.0
4.9
12678:
3.5
2.7
2.6
4.9
5.0
4.3
5.0
4.6
4.9
3.5
4.8
5.0
5.0
5.0
5.0
5.0
3.6
2.3
5.0
2.8
4.3
12679:
3.7
4.2
2.9
2.5
5.0
5.0
3.8
4.3
4.8
5.0
2.7
2.6
2.5
4.3
3.8
2.8
3.8
5.0
4.3
3.7
3.4
2.9
4.9
3.4
3.7
2.2
4.1
4.1
4.5
3.3
5.0
3.8
5.0
2.5
3.0
4.7
4.7
3.6
4.0
5.0
3.4
3.0
5.0
5.0
3.5
2.3
5.0
2.8
5.0
4.7
2.5
4.4
2.6
3.3
4.6
2.8
5.0
3.5
5.0
3.5
4.1
3.7
5.0
2.8
2.5
4.9
3.0
2.6
2.9
4.6
2.3
2.2
2.2
3.0
2.2
2.9
4.4
4.2
3.0
4.9
2.7
5.0
4.9
3.2
2.5
3.3
1268:
5.0
3.4
2.4
5.0
5.0
2.4
5.0
4.0
2.4
4.1
3.5
3.8
5.0
5.0
2.7
5.0
5.0
4.8
3.8
4.7
5.0
4.2
5.0
2.8
5.0
4.9
4.2
12680:
2.4
5.0
3.9
3.6
3.8
5.0
3.7
3.9
3.9
4.9
5.0
5.0
5.0
3.2
5.0
4.2
4.6
12681:
5.0
3.7
4.4
4.0
4.2
5.0
5.0
5.0
5.0
5.0
5.0
12682:
4.6
3.5
12683:
5.0
5.0
2.6
4.7
4.6
12684:
3.5
4.6
5.0
4.3
5.0
5.0
12685:
4.3
12686:
3.7
12687:
2.6
4.8
12688:
4.3
5.0
3.1
4.7
5.0
5.0
3.7
4.8
5.0
5.0
5.0
4.6
3.2
5.0
3.6
5.0
5.0
3.9
4.8
2.8
2.5
2.9
5.0
5.0
4.6
4.9
2.5
3.9
3.9
4.3
5.0
5.0
3.2
3.8
2.7
3.6
5.0
3.9
3.7
3.3
4.1
4.3
4.1
3.7
2.7
3.7
5.0
5.0
5.0
4.3
3.3
5.0
2.2
4.3
2.5
3.2
3.8
5.0
4.4
4.8
4.2
3.4
12689:
5.0
5.0
5.0
5.0
5.0
5.0
4.4
5.0
5.0
4.7
5.0
5.0
4.3
5.0
1269:
4.2
5.0
4.6
4.2
3.7
4.9
4.8
5.0
3.9
5.0
5.0
4.2
2.3
5.0
5.0
5.0
3.9
5.0
12690:
4.6
4.0
4.2
3.8
5.0
5.0
5.0
4.8
5.0
5.0
5.0
3.7
5.0
5.0
2.8
5.0
4.3
4.8
4.8
3.7
3.2
5.0
3.9
4.1
3.5
5.0
4.6
4.6
4.6
5.0
3.8
5.0
5.0
2.7
4.2
5.0
5.0
5.0
5.0
5.0
4.4
2.3
4.1
4.2
2.6
5.0
3.7
4.6
3.2
5.0
2.9
3.4
2.4
5.0
5.0
5.0
3.9
5.0
5.0
5.0
5.0
2.3
5.0
4.2
4.8
5.0
4.7
4.9
5.0
5.0
3.3
4.9
5.0
2.9
5.0
5.0
5.0
5.0
2.3
5.0
5.0
4.0
5.0
4.5
4.4
5.0
3.6
4.1
4.7
5.0
5.0
3.8
5.0
5.0
5.0
3.7
5.0
5.0
5.0
5.0
3.7
4.2
5.0
4.6
5.0
5.0
4.3
5.0
3.9
2.1
4.3
4.6
2.2
5.0
4.8
3.2
5.0
4.2
4.6
5.0
5.0
4.4
2.8
4.2
5.0
3.5
5.0
5.0
5.0
4.7
5.0
5.0
4.3
5.0
5.0
3.4
2.9
4.0
5.0
5.0
2.7
5.0
5.0
5.0
5.0
4.3
4.3
5.0
5.0
5.0
5.0
4.0
5.0
5.0
4.6
4.6
4.2
5.0
5.0
5.0
3.6
5.0
5.0
3.7
4.6
4.3
4.4
5.0
4.4
4.5
3.6
5.0
3.0
3.9
4.9
3.6
3.8
4.4
5.0
5.0
5.0
4.7
5.0
4.4
5.0
5.0
3.1
3.2
5.0
5.0
5.0
4.6
5.0
5.0
3.3
5.0
5.0
3.7
3.2
4.9
5.0
4.4
5.0
4.3
4.9
3.6
5.0
4.7
4.8
4.3
3.0
4.9
5.0
4.9
4.8
5.0
4.5
5.0
5.0
5.0
5.0
5.0
4.7
4.6
4.6
4.4
5.0
3.5
3.3
4.6
3.3
5.0
4.3
5.0
4.4
3.5
5.0
5.0
3.8
5.0
5.0
2.3
5.0
5.0
5.0
5.0
5.0
5.0
3.6
5.0
5.0
5.0
4.3
2.6
4.4
5.0
5.0
5.0
5.0
4.3
5.0
5.0
3.7
5.0
4.6
5.0
3.3
4.2
3.4
5.0
2.7
3.4
5.0
5.0
5.0
4.7
2.1
5.0
4.4
5.0
5.0
5.0
2.2
5.0
4.4
2.5
5.0
5.0
5.0
4.9
5.0
3.3
5.0
3.9
5.0
3.4
4.1
4.2
5.0
5.0
3.2
5.0
5.0
2.7
3.8
2.3
5.0
4.4
3.5
5.0
2.5
4.7
5.0
4.7
4.3
5.0
3.5
3.2
2.3
5.0
5.0
4.0
4.5
5.0
4.2
2.5
5.0
3.5
5.0
4.7
2.6
5.0
3.0
5.0
3.7
5.0
5.0
2.4
4.9
4.6
5.0
4.3
5.0
5.0
3.4
4.6
5.0
4.7
5.0
5.0
5.0
2.5
5.0
3.9
4.8
4.5
5.0
5.0
5.0
2.7
2.2
5.0
3.4
4.0
4.2
5.0
3.6
5.0
4.8
5.0
4.0
5.0
4.9
2.9
4.4
5.0
4.5
4.2
4.6
5.0
5.0
5.0
5.0
2.5
5.0
5.0
4.3
5.0
4.2
4.2
4.5
3.1
4.2
5.0
4.8
5.0
2.3
4.4
5.0
4.3
4.2
5.0
5.0
5.0
5.0
4.8
5.0
5.0
5.0
5.0
3.5
5.0
5.0
5.0
4.3
4.6
5.0
5.0
3.4
4.9
4.9
5.0
5.0
5.0
5.0
4.5
5.0
4.9
5.0
2.3
2.4
4.4
4.1
5.0
3.8
5.0
5.0
2.4
5.0
3.4
5.0
5.0
5.0
5.0
4.4
4.3
4.9
4.4
5.0
2.8
4.3
4.6
4.3
4.5
4.8
5.0
3.5
4.8
5.0
5.0
4.7
3.6
5.0
5.0
4.4
2.9
5.0
5.0
4.6
5.0
5.0
3.2
3.6
4.6
4.0
4.3
4.8
2.3
4.3
5.0
3.4
2.5
5.0
4.8
5.0
5.0
5.0
5.0
5.0
2.4
4.9
4.0
4.7
3.5
5.0
5.0
5.0
5.0
5.0
5.0
5.0
3.9
5.0
4.7
4.5
5.0
5.0
4.6
5.0
4.6
4.7
3.6
5.0
5.0
5.0
5.0
5.0
5.0
5.0
5.0
3.7
4.8
3.3
5.0
4.9
5.0
5.0
3.7
5.0
3.8
2.6
3.2
5.0
4.9
5.0
2.1
5.0
5.0
4.3
4.7
5.0
3.4
5.0
5.0
5.0
4.4
4.6
5.0
5.0
5.0
2.8
5.0
5.0
5.0
4.4
5.0
5.0
4.9
5.0
5.0
3.4
3.5
5.0
4.6
2.4
5.0
5.0
5.0
5.0
4.7
3.2
5.0
4.6
4.3
2.4
3.5
5.0
4.4
5.0
2.6
5.0
3.7
5.0
2.6
2.8
5.0
5.0
5.0
5.0
5.0
5.0
2.2
5.0
5.0
4.2
5.0
5.0
5.0
5.0
5.0
5.0
3.2
4.4
5.0
5.0
4.6
4.3
5.0
5.0
5.0
4.1
4.6
5.0
5.0
5.0
5.0
4.3
5.0
3.1
5.0
5.0
4.4
4.4
2.7
5.0
3.0
4.7
4.6
4.3
4.8
5.0
5.0
3.7
3.6
5.0
4.7
5.0
5.0
4.3
5.0
5.0
5.0
5.0
5.0
5.0
3.1
4.7
5.0
2.2
4.3
4.4
4.5
5.0
4.4
5.0
5.0
2.4
5.0
3.9
4.8
5.0
4.2
3.7
5.0
4.6
3.1
4.5
3.6
3.9
5.0
5.0
2.9
5.0
5.0
3.6
4.6
5.0
5.0
5.0
4.1
4.3
5.0
4.6
3.3
5.0
5.0
2.4
5.0
5.0
5.0
4.4
4.4
3.4
5.0
3.8
3.7
5.0
5.0
5.0
5.0
5.0
4.1
5.0
5.0
5.0
3.7
5.0
5.0
5.0
2.5
4.0
5.0
5.0
5.0
4.8
4.4
3.8
5.0
5.0
5.0
5.0
4.3
5.0
4.6
4.6
3.9
4.5
5.0
5.0
4.5
4.9
4.6
5.0
5.0
5.0
5.0
4.8
5.0
5.0
4.4
5.0
3.7
3.6
4.9
4.6
2.9
4.9
5.0
4.0
4.7
5.0
5.0
2.5
5.0
5.0
3.8
4.5
5.0
5.0
4.3
5.0
5.0
3.8
5.0
3.4
3.3
4.3
5.0
3.5
4.5
5.0
4.4
2.5
5.0
5.0
5.0
4.9
3.0
2.4
5.0
5.0
5.0
5.0
4.0
5.0
3.4
4.7
5.0
3.1
4.5
4.3
4.7
2.4
5.0
5.0
3.5
4.8
4.4
4.4
5.0
5.0
2.3
4.7
3.7
5.0
4.6
5.0
5.0
2.6
2.9
5.0
4.6
5.0
4.0
4.7
3.7
5.0
4.6
5.0
2.2
5.0
5.0
3.0
5.0
4.2
3.8
4.2
2.8
2.3
5.0
4.7
2.9
5.0
5.0
5.0
2.7
5.0
5.0
4.3
4.4
4.3
3.2
5.0
4.6
4.9
5.0
5.0
4.8
4.7
3.8
4.9
4.2
3.6
5.0
4.8
5.0
5.0
5.0
5.0
4.8
5.0
3.9
5.0
3.5
4.4
3.5
5.0
3.0
5.0
5.0
5.0
5.0
4.7
3.7
5.0
5.0
3.3
12691:
4.8
2.9
5.0
5.0
5.0
5.0
5.0
4.6
4.6
3.3
3.9
3.9
3.7
2.5
4.7
12692:
5.0
12693:
4.6
5.0
5.0
5.0
5.0
3.4
5.0
4.5
4.0
5.0
4.8
5.0
5.0
5.0
4.3
5.0
5.0
4.8
3.3
3.5
5.0
5.0
5.0
4.0
5.0
3.5
5.0
5.0
2.8
5.0
5.0
5.0
5.0
4.3
5.0
4.6
3.4
3.3
4.7
5.0
2.7
12694:
4.8
5.0
5.0
5.0
2.9
4.8
4.6
5.0
3.9
3.6
5.0
5.0
2.6
5.0
4.2
5.0
4.4
4.9
4.9
3.8
3.8
5.0
5.0
5.0
4.4
3.5
4.7
5.0
3.9
2.3
5.0
3.5
5.0
2.8
5.0
5.0
4.9
4.4
3.3
2.2
5.0
4.7
5.0
5.0
3.6
2.6
4.4
5.0
3.2
5.0
4.6
4.0
5.0
5.0
3.8
4.7
3.6
4.5
4.0
2.4
3.6
5.0
5.0
4.9
5.0
5.0
4.3
5.0
3.1
5.0
3.5
4.9
3.8
4.6
4.4
4.6
2.8
5.0
5.0
5.0
5.0
4.6
4.7
5.0
3.2
4.9
4.0
4.6
2.6
5.0
3.5
4.9
3.4
5.0
4.6
3.7
4.3
4.6
5.0
5.0
5.0
3.3
5.0
5.0
5.0
4.4
4.9
4.8
4.5
5.0
4.9
5.0
4.9
4.3
4.8
5.0
5.0
4.8
5.0
4.3
5.0
3.3
3.8
5.0
3.8
4.6
3.6
3.0
2.5
4.6
5.0
5.0
3.9
5.0
5.0
4.6
2.9
2.9
3.3
5.0
4.8
3.8
2.7
4.7
4.8
4.6
4.8
5.0
5.0
5.0
4.3
4.6
2.4
4.0
4.5
5.0
4.5
5.0
4.9
4.7
2.6
5.0
5.0
5.0
3.8
3.3
4.3
5.0
4.6
5.0
5.0
4.9
3.3
4.7
3.3
4.5
4.5
5.0
4.8
5.0
4.8
2.7
3.0
3.7
4.9
5.0
4.7
4.8
4.3
4.7
4.1
4.5
3.7
4.9
3.7
5.0
5.0
4.1
4.9
3.9
4.7
3.3
5.0
5.0
5.0
4.3
4.4
3.5
5.0
4.3
4.3
5.0
2.6
5.0
3.9
3.9
4.8
4.7
4.3
5.0
2.8
3.7
4.8
4.9
4.1
3.3
5.0
4.6
3.9
5.0
4.8
4.3
4.0
5.0
4.4
5.0
3.7
5.0
3.6
5.0
4.2
5.0
5.0
3.3
2.8
3.3
5.0
3.4
2.3
4.6
3.7
4.5
5.0
2.2
5.0
5.0
4.6
5.0
5.0
5.0
2.3
4.6
3.8
4.8
2.6
4.7
5.0
4.8
4.0
3.9
4.0
4.6
5.0
3.2
3.3
5.0
4.7
3.5
5.0
5.0
4.7
3.7
5.0
3.9
4.4
5.0
4.9
2.4
4.1
5.0
3.4
5.0
5.0
3.4
4.9
4.6
2.7
4.8
5.0
2.2
4.1
3.7
3.7
2.7
4.7
5.0
5.0
4.9
3.8
4.2
5.0
5.0
3.3
4.7
3.4
5.0
4.0
3.6
5.0
4.7
2.1
5.0
5.0
4.2
3.4
5.0
3.8
5.0
5.0
5.0
5.0
5.0
3.3
4.0
5.0
5.0
5.0
4.9
4.7
5.0
5.0
5.0
3.4
3.9
5.0
4.8
5.0
3.3
2.6
3.9
4.3
2.7
3.7
4.7
4.4
4.8
3.3
3.4
4.2
5.0
4.6
5.0
4.8
4.0
4.5
5.0
4.1
3.4
2.6
2.8
5.0
5.0
5.0
4.8
3.0
5.0
2.6
3.5
4.3
5.0
2.8
4.4
5.0
5.0
3.3
5.0
5.0
2.3
4.5
2.7
3.7
5.0
3.9
4.2
5.0
2.7
3.5
3.5
3.9
5.0
4.3
5.0
4.8
3.3
5.0
4.8
3.7
4.3
5.0
3.6
4.7
3.9
4.6
4.4
5.0
5.0
4.0
3.9
4.0
3.1
3.6
4.0
3.6
5.0
4.4
2.9
4.0
5.0
5.0
2.9
5.0
5.0
4.1
4.7
3.3
4.3
4.7
4.6
5.0
4.9
4.7
5.0
4.9
3.5
4.9
4.3
5.0
3.1
5.0
5.0
4.5
5.0
4.8
5.0
3.6
3.6
4.5
5.0
5.0
5.0
3.8
4.0
3.3
4.3
4.4
4.7
4.9
5.0
2.7
5.0
4.9
5.0
4.2
5.0
4.0
2.9
2.3
3.2
5.0
5.0
4.7
4.4
5.0
3.5
4.5
5.0
5.0
4.4
4.9
4.7
5.0
5.0
3.5
4.7
4.4
5.0
2.6
5.0
4.5
3.9
4.3
5.0
3.3
4.7
4.6
4.5
3.4
2.5
3.2
4.5
4.2
4.8
4.3
2.8
5.0
5.0
5.0
4.0
4.3
5.0
3.8
4.5
3.4
5.0
4.4
4.2
4.1
4.8
3.2
4.2
4.2
4.6
3.3
4.5
5.0
3.3
5.0
3.6
5.0
5.0
4.7
5.0
5.0
4.4
5.0
2.7
4.5
3.9
3.4
4.7
5.0
3.9
5.0
5.0
3.6
5.0
3.4
4.1
3.3
4.7
5.0
4.7
5.0
2.4
3.6
2.3
5.0
3.5
4.5
4.8
3.5
4.9
3.3
3.5
5.0
3.5
3.8
5.0
5.0
5.0
5.0
3.9
3.9
4.8
5.0
4.7
5.0
2.2
4.6
5.0
4.5
4.1
5.0
4.6
3.2
4.1
4.5
4.3
3.6
3.9
5.0
5.0
4.6
4.3
5.0
4.3
4.2
4.4
4.3
4.4
4.6
4.9
5.0
5.0
3.2
5.0
5.0
5.0
4.7
4.1
4.7
5.0
5.0
4.5
2.5
4.5
4.1
3.8
2.8
3.4
5.0
5.0
5.0
2.5
4.5
5.0
3.6
4.1
4.4
4.4
3.3
3.0
4.5
3.4
5.0
4.5
4.3
4.9
5.0
5.0
5.0
3.5
5.0
5.0
4.1
5.0
3.9
5.0
3.8
3.1
3.5
4.5
4.8
2.3
4.3
5.0
4.8
5.0
3.7
4.4
3.3
4.5
3.5
4.5
5.0
3.3
4.5
5.0
4.3
4.3
2.4
4.2
5.0
4.9
5.0
5.0
3.5
5.0
4.9
2.4
4.3
4.6
4.4
2.8
5.0
3.0
4.4
5.0
5.0
3.4
3.7
3.2
5.0
5.0
5.0
4.0
5.0
4.7
4.2
3.9
5.0
5.0
2.4
5.0
5.0
5.0
4.5
3.9
3.9
4.5
3.6
3.8
3.7
5.0
3.7
4.8
5.0
4.5
5.0
4.4
4.9
2.3
5.0
3.1
5.0
3.9
5.0
5.0
4.8
3.4
3.6
4.1
4.6
4.6
4.9
3.7
5.0
3.8
3.7
3.7
3.7
4.0
5.0
5.0
4.1
3.2
5.0
3.8
3.7
5.0
4.8
3.9
4.0
4.2
4.5
5.0
4.3
4.8
3.3
3.6
3.6
4.6
5.0
5.0
3.8
5.0
4.7
2.8
2.8
5.0
5.0
4.3
2.6
4.3
3.4
4.9
5.0
4.4
4.9
4.1
4.4
4.6
4.9
3.3
4.8
4.6
4.9
4.3
5.0
3.4
5.0
2.6
5.0
5.0
4.9
4.3
5.0
3.6
4.2
4.4
4.7
4.9
5.0
5.0
5.0
5.0
4.5
5.0
5.0
3.9
4.4
5.0
5.0
3.5
5.0
4.5
3.7
4.9
4.6
5.0
3.3
4.4
4.3
3.4
5.0
3.4
5.0
4.8
4.8
5.0
4.9
5.0
3.4
5.0
3.9
4.9
4.8
3.5
3.2
4.5
4.9
5.0
4.7
4.9
4.6
3.8
4.9
5.0
3.5
4.9
4.8
3.8
4.5
4.0
3.9
4.7
5.0
4.6
4.6
5.0
5.0
4.3
5.0
4.8
3.7
3.3
5.0
5.0
5.0
5.0
5.0
5.0
4.9
5.0
2.8
5.0
3.9
5.0
5.0
4.5
4.6
5.0
5.0
3.9
5.0
5.0
3.5
4.4
5.0
5.0
3.9
4.7
5.0
4.4
4.6
4.7
2.2
4.3
3.4
5.0
3.7
4.2
5.0
4.8
4.3
5.0
5.0
4.7
5.0
3.7
4.6
5.0
3.4
3.5
4.0
4.8
5.0
4.5
2.7
5.0
3.0
2.1
4.2
5.0
4.1
3.3
5.0
4.7
4.7
2.4
3.4
4.4
4.4
3.2
5.0
2.9
5.0
4.7
5.0
5.0
3.9
3.4
4.1
3.8
4.9
3.7
3.6
2.8
4.8
4.8
3.8
4.7
5.0
5.0
5.0
5.0
4.9
4.9
5.0
5.0
4.7
5.0
3.7
3.6
3.9
3.6
4.6
4.4
5.0
3.3
2.9
4.5
4.5
4.0
3.8
5.0
4.5
4.3
4.4
3.6
4.5
4.7
5.0
4.1
3.5
5.0
3.3
5.0
4.9
3.3
5.0
2.5
4.1
2.2
3.5
5.0
5.0
5.0
5.0
4.8
5.0
5.0
5.0
5.0
3.9
4.8
4.6
5.0
5.0
4.6
5.0
4.3
4.7
4.3
2.4
5.0
3.2
5.0
4.9
5.0
2.7
4.3
4.4
5.0
4.9
4.8
4.3
3.8
3.7
4.8
3.5
4.7
5.0
3.6
4.4
5.0
4.8
4.4
3.8
3.4
4.4
3.3
5.0
4.3
4.9
4.8
3.6
4.6
5.0
5.0
4.4
4.2
4.8
4.7
5.0
5.0
4.8
3.4
4.3
3.6
5.0
5.0
5.0
5.0
2.8
4.7
4.6
4.6
5.0
3.6
4.0
5.0
4.6
3.1
3.6
4.7
4.3
5.0
5.0
4.0
4.8
5.0
2.7
4.3
4.5
3.9
5.0
4.9
3.7
3.3
5.0
4.9
2.5
4.4
5.0
4.6
4.8
3.6
5.0
4.7
3.5
4.6
3.5
5.0
5.0
4.5
4.6
4.7
5.0
5.0
4.8
5.0
4.7
5.0
5.0
4.5
4.2
5.0
4.5
4.9
5.0
4.9
2.3
4.3
2.4
2.5
4.9
4.1
5.0
4.3
3.5
4.4
4.8
2.5
3.8
4.2
2.6
4.8
2.4
4.5
5.0
4.0
3.0
5.0
3.5
5.0
5.0
4.7
5.0
4.8
4.5
5.0
4.5
5.0
3.8
4.3
3.4
4.5
5.0
4.8
5.0
5.0
4.4
4.5
4.4
4.4
4.4
3.8
4.8
5.0
5.0
3.1
5.0
4.2
3.6
4.1
4.6
5.0
4.4
4.5
5.0
4.1
4.0
4.7
3.0
2.3
4.3
4.4
4.5
5.0
3.9
4.9
3.4
5.0
3.3
4.2
5.0
5.0
5.0
4.3
4.0
5.0
4.8
3.5
5.0
4.5
5.0
3.9
4.3
5.0
5.0
5.0
5.0
4.2
5.0
4.7
3.8
3.7
5.0
3.4
4.0
5.0
3.6
3.4
4.2
5.0
3.5
2.8
4.2
3.8
2.9
5.0
3.9
4.7
5.0
3.8
4.9
4.7
4.7
2.2
3.7
3.8
3.6
5.0
5.0
4.3
3.5
4.9
4.2
4.9
4.9
4.1
5.0
4.3
5.0
5.0
5.0
5.0
4.7
4.6
3.8
4.5
3.4
3.4
4.1
3.6
4.4
5.0
5.0
4.5
4.6
3.7
3.5
5.0
4.8
4.2
5.0
2.6
4.3
3.8
4.0
3.7
3.8
3.9
4.3
3.1
5.0
2.6
2.4
3.0
5.0
5.0
4.9
4.2
4.0
4.9
3.2
4.3
4.2
4.5
4.4
4.6
4.4
5.0
4.7
3.9
4.1
5.0
4.4
3.6
3.2
4.0
3.8
4.1
5.0
5.0
4.7
5.0
5.0
2.5
5.0
4.8
4.8
3.4
5.0
4.6
5.0
5.0
5.0
4.8
4.3
4.9
4.5
5.0
4.5
4.6
4.9
4.9
5.0
5.0
4.6
4.6
4.2
4.8
4.6
5.0
3.3
5.0
2.7
3.2
3.5
5.0
4.9
5.0
5.0
5.0
5.0
4.7
4.2
5.0
4.8
4.5
4.5
5.0
4.6
4.7
5.0
4.7
2.7
4.8
4.0
4.9
5.0
3.8
5.0
4.1
5.0
5.0
5.0
4.3
5.0
2.9
5.0
3.4
5.0
4.5
4.2
5.0
4.5
3.6
4.7
4.2
2.8
2.3
5.0
5.0
3.9
5.0
5.0
5.0
4.8
5.0
2.3
2.8
2.2
4.4
4.7
3.9
4.8
5.0
4.0
4.9
5.0
3.2
3.8
4.7
5.0
4.3
5.0
5.0
4.1
4.0
5.0
5.0
2.7
3.0
5.0
4.3
5.0
4.8
4.7
4.3
5.0
3.5
3.3
4.1
3.7
5.0
4.7
4.9
4.7
3.7
4.6
4.4
5.0
2.9
4.7
3.3
5.0
4.0
2.6
4.9
5.0
3.5
5.0
5.0
4.6
5.0
4.9
5.0
3.7
5.0
4.8
2.2
2.5
4.7
4.6
3.5
3.2
4.8
4.3
3.3
4.8
5.0
4.2
5.0
5.0
3.5
4.2
3.2
3.9
5.0
5.0
5.0
4.6
3.2
2.7
4.3
4.5
5.0
5.0
3.4
4.3
5.0
4.0
4.7
5.0
4.5
3.6
2.4
4.9
5.0
3.8
5.0
4.2
2.5
5.0
2.7
5.0
2.1
5.0
4.9
5.0
3.9
3.0
4.8
4.5
4.5
3.3
5.0
3.6
4.9
4.8
5.0
5.0
5.0
5.0
4.4
5.0
4.5
5.0
5.0
5.0
4.8
4.4
3.3
3.4
3.3
3.5
4.0
3.6
3.4
5.0
3.6
5.0
4.4
4.8
5.0
4.1
4.7
4.8
4.0
4.3
3.8
4.9
4.8
3.8
4.7
5.0
3.9
2.5
3.9
5.0
3.6
2.7
5.0
4.6
5.0
3.7
5.0
3.5
4.8
5.0
4.9
3.0
3.6
3.8
5.0
4.9
4.5
4.7
2.1
3.8
5.0
5.0
3.7
4.7
5.0
4.9
3.6
5.0
3.5
4.5
4.8
4.2
5.0
4.4
2.4
4.9
3.8
2.9
5.0
4.2
4.8
2.3
5.0
5.0
5.0
5.0
3.1
3.2
4.4
5.0
4.8
3.5
3.3
5.0
5.0
5.0
4.0
3.6
4.5
4.3
3.3
3.6
4.8
2.2
2.2
5.0
2.5
4.2
4.7
3.5
5.0
5.0
5.0
3.6
5.0
4.8
4.4
3.3
5.0
4.6
3.3
3.3
4.8
3.7
3.6
4.5
4.8
4.6
4.1
4.8
4.0
4.5
5.0
2.6
5.0
4.0
3.8
5.0
4.4
4.7
5.0
3.7
4.6
3.0
5.0
5.0
3.4
5.0
3.9
2.9
5.0
4.7
4.7
4.6
5.0
3.7
5.0
5.0
3.9
3.9
5.0
5.0
3.7
4.2
5.0
4.2
3.6
5.0
5.0
3.3
3.2
3.9
5.0
5.0
3.5
5.0
4.8
5.0
4.4
5.0
5.0
5.0
5.0
2.5
3.3
4.0
4.2
4.2
4.2
4.4
2.8
3.2
4.2
3.1
4.2
2.9
4.3
5.0
4.5
5.0
4.6
4.1
4.6
4.5
5.0
4.3
3.5
5.0
3.3
5.0
4.6
5.0
2.5
5.0
4.8
2.7
4.8
4.9
3.2
4.7
5.0
4.2
5.0
4.7
5.0
4.5
5.0
4.6
4.4
5.0
4.1
4.8
4.8
4.0
4.9
3.6
2.5
4.8
5.0
4.3
4.7
4.8
4.5
4.6
4.8
4.4
5.0
3.5
3.3
5.0
3.0
4.8
3.4
5.0
4.5
5.0
4.4
3.3
4.5
5.0
3.0
2.3
3.4
4.2
3.5
3.5
3.5
4.8
5.0
4.3
2.3
5.0
4.9
5.0
4.5
4.6
4.9
5.0
3.6
5.0
5.0
4.0
5.0
5.0
3.5
3.8
4.1
5.0
4.4
4.8
5.0
5.0
3.3
2.5
5.0
3.4
5.0
2.3
4.6
3.5
4.4
4.3
4.9
5.0
4.6
5.0
5.0
5.0
2.8
5.0
2.6
4.3
5.0
4.7
5.0
3.6
5.0
4.9
4.8
5.0
4.2
5.0
4.7
3.7
4.5
2.7
5.0
4.6
3.4
3.1
4.9
3.9
5.0
5.0
3.4
4.2
5.0
5.0
5.0
3.3
4.7
5.0
3.3
4.5
4.0
4.3
5.0
5.0
3.7
5.0
4.9
4.1
5.0
5.0
5.0
5.0
5.0
4.9
5.0
4.1
4.7
2.5
4.3
5.0
2.7
4.7
4.6
4.8
3.4
5.0
3.5
3.6
4.4
4.9
5.0
3.6
5.0
4.5
4.9
3.7
4.4
3.1
2.8
3.3
4.9
3.6
4.4
5.0
4.2
4.5
5.0
4.8
3.8
4.7
3.4
3.8
3.4
4.6
3.4
3.9
4.9
4.7
2.9
4.3
5.0
2.8
4.3
2.6
3.7
3.5
4.5
4.6
4.3
4.4
5.0
3.3
4.7
3.5
5.0
5.0
5.0
2.3
3.8
3.7
5.0
4.4
4.8
4.0
4.3
3.8
2.6
5.0
2.7
5.0
5.0
4.4
3.4
5.0
4.2
4.6
5.0
5.0
5.0
2.4
4.8
3.4
2.5
5.0
4.4
4.3
5.0
3.5
4.6
5.0
5.0
4.7
5.0
3.4
4.7
4.2
3.9
4.7
3.7
3.9
2.8
5.0
5.0
4.8
5.0
4.2
5.0
5.0
4.6
2.6
4.0
3.3
3.6
3.7
3.3
2.4
2.1
3.2
4.2
4.4
4.9
5.0
5.0
4.9
5.0
5.0
3.4
4.2
4.1
5.0
5.0
5.0
4.8
4.7
3.7
5.0
3.3
5.0
5.0
4.7
3.8
4.0
2.6
4.2
5.0
3.4
4.6
5.0
4.9
4.5
3.4
3.1
4.6
2.9
4.0
5.0
4.5
3.5
4.5
5.0
3.7
4.0
5.0
4.2
4.4
3.9
3.9
5.0
3.7
5.0
4.3
5.0
4.4
5.0
4.8
5.0
5.0
5.0
4.4
5.0
3.7
4.9
5.0
4.9
5.0
2.5
4.6
5.0
4.4
5.0
2.5
5.0
2.7
4.4
5.0
5.0
3.9
4.7
4.8
5.0
4.3
3.9
5.0
3.2
3.6
4.9
4.1
4.3
5.0
4.4
5.0
3.4
4.7
2.7
2.8
5.0
3.6
4.5
3.2
4.8
5.0
5.0
5.0
4.9
4.7
4.9
5.0
4.5
5.0
4.0
4.3
2.5
5.0
4.7
5.0
4.3
3.5
4.7
4.1
3.3
4.4
4.2
4.6
5.0
4.3
3.8
4.0
5.0
2.3
3.9
3.7
3.7
3.9
5.0
4.9
4.8
4.1
5.0
2.5
3.7
4.4
4.7
5.0
5.0
4.3
5.0
3.3
3.4
5.0
2.4
4.5
3.4
3.1
3.4
3.7
4.4
3.5
3.9
4.7
4.0
4.5
5.0
3.4
5.0
3.6
5.0
4.3
5.0
4.5
5.0
4.2
4.1
3.4
4.8
5.0
5.0
3.7
4.2
5.0
5.0
3.6
2.9
4.0
2.1
5.0
4.4
4.4
4.3
5.0
4.4
4.4
4.8
3.7
2.9
4.7
5.0
3.8
4.8
5.0
2.6
3.6
5.0
5.0
5.0
4.9
4.2
2.8
5.0
5.0
4.3
5.0
3.2
4.2
4.8
3.7
5.0
4.9
2.1
4.4
5.0
5.0
5.0
5.0
5.0
5.0
4.7
4.4
5.0
5.0
4.6
4.5
4.6
2.4
5.0
3.5
5.0
5.0
4.1
4.4
2.9
4.9
4.7
4.9
3.9
3.8
5.0
4.9
4.2
4.8
5.0
3.9
5.0
5.0
3.3
5.0
4.8
4.2
4.4
4.2
4.4
2.9
4.3
4.7
3.7
2.6
5.0
2.5
4.8
2.1
5.0
5.0
4.0
4.2
3.3
5.0
3.9
5.0
4.4
3.4
3.8
4.4
5.0
4.1
5.0
2.6
5.0
4.9
4.0
4.7
3.9
4.8
2.6
5.0
5.0
5.0
5.0
5.0
5.0
5.0
4.5
3.8
3.0
3.7
3.8
3.3
3.4
4.3
4.5
5.0
3.7
5.0
4.6
2.6
4.3
5.0
2.4
3.9
5.0
3.4
5.0
5.0
3.7
4.5
5.0
4.7
4.4
2.6
5.0
3.2
4.5
5.0
3.4
4.7
5.0
3.6
4.3
5.0
4.7
3.9
3.6
3.3
4.9
4.6
3.8
5.0
3.4
4.6
4.8
5.0
5.0
4.6
4.6
3.3
5.0
5.0
4.4
3.6
3.7
5.0
5.0
4.8
5.0
3.6
5.0
4.3
4.7
2.7
3.8
4.1
3.3
5.0
2.8
5.0
4.8
4.6
5.0
4.6
4.9
5.0
5.0
5.0
5.0
5.0
3.4
5.0
5.0
5.0
3.3
3.4
2.8
2.2
4.1
3.4
5.0
4.2
3.5
4.4
5.0
5.0
5.0
4.8
3.6
4.7
5.0
5.0
4.1
5.0
3.0
5.0
5.0
5.0
5.0
3.6
4.2
5.0
5.0
4.4
5.0
5.0
5.0
4.2
3.0
4.7
3.6
4.3
5.0
4.7
4.9
4.9
4.3
4.4
3.5
4.6
3.4
5.0
5.0
3.8
4.2
4.1
5.0
4.4
4.3
2.6
5.0
4.8
3.9
5.0
4.4
5.0
5.0
5.0
5.0
3.9
4.7
4.7
3.4
5.0
3.7
4.9
3.9
4.6
4.5
3.3
4.7
5.0
5.0
4.6
4.7
4.6
5.0
4.3
5.0
3.9
4.3
4.5
4.7
4.8
5.0
2.4
3.3
3.4
3.9
4.4
3.3
5.0
4.0
4.3
5.0
5.0
2.6
2.4
5.0
4.3
4.6
4.9
4.4
4.2
4.1
3.3
3.5
3.7
3.2
4.9
4.9
4.3
3.3
5.0
4.5
5.0
5.0
5.0
5.0
3.9
4.6
5.0
4.6
3.6
4.7
4.2
5.0
4.8
4.9
5.0
3.6
4.4
3.6
4.8
4.8
4.8
3.1
2.9
5.0
2.6
4.7
4.7
5.0
4.5
4.6
4.2
5.0
5.0
4.6
3.9
3.2
5.0
5.0
3.6
3.5
4.6
4.4
5.0
4.9
3.5
5.0
5.0
4.3
5.0
5.0
4.4
5.0
5.0
2.7
5.0
3.6
4.2
4.4
4.6
5.0
2.5
4.6
4.6
4.5
2.9
5.0
5.0
4.2
3.8
5.0
4.6
4.8
4.2
5.0
3.7
4.8
4.3
3.3
5.0
5.0
5.0
3.9
4.2
5.0
4.3
3.5
4.7
4.5
4.4
4.8
5.0
5.0
5.0
2.6
5.0
3.9
4.3
2.6
2.4
5.0
4.0
4.0
5.0
4.9
4.1
4.4
3.3
3.7
4.4
5.0
3.6
4.4
4.5
3.4
3.4
2.9
5.0
3.6
4.7
3.7
5.0
4.9
4.3
5.0
4.5
4.8
3.8
3.9
4.7
4.8
4.7
4.2
5.0
5.0
3.2
5.0
4.4
3.8
4.7
5.0
2.2
5.0
5.0
4.0
4.1
4.5
5.0
3.5
5.0
2.8
5.0
5.0
5.0
4.9
5.0
4.5
3.3
2.5
5.0
2.6
4.1
4.4
5.0
4.9
2.6
4.7
3.4
3.9
5.0
4.5
4.2
4.3
3.7
4.6
4.4
3.3
5.0
5.0
3.9
5.0
5.0
4.9
3.3
4.2
5.0
4.6
5.0
4.3
2.2
4.5
4.2
5.0
3.4
5.0
5.0
4.5
4.1
5.0
5.0
4.3
4.9
2.6
3.3
3.8
3.7
5.0
3.2
4.4
4.7
3.5
5.0
3.5
4.7
4.2
4.4
5.0
4.3
5.0
2.8
4.7
3.2
4.9
4.0
4.9
4.3
5.0
3.6
3.9
3.8
3.3
3.8
5.0
5.0
5.0
3.3
4.0
5.0
4.2
4.4
4.0
5.0
4.9
3.8
4.0
4.3
5.0
3.9
5.0
5.0
5.0
5.0
3.6
4.6
4.3
4.0
2.7
4.8
4.0
2.7
4.0
5.0
3.0
4.6
4.7
4.6
5.0
4.5
4.2
5.0
4.5
4.8
3.2
5.0
4.3
3.7
4.5
3.9
5.0
3.0
4.2
5.0
5.0
5.0
4.7
4.3
4.9
2.2
5.0
4.4
3.5
2.9
5.0
4.0
4.4
5.0
5.0
5.0
5.0
2.1
3.4
4.3
2.6
3.2
3.3
4.2
3.5
4.2
5.0
4.2
5.0
5.0
4.5
4.4
4.7
4.0
4.8
5.0
4.4
5.0
4.5
4.5
5.0
5.0
5.0
2.4
3.4
5.0
4.3
2.7
2.5
4.3
4.0
5.0
4.5
5.0
4.0
5.0
4.8
4.9
2.2
2.7
4.6
5.0
3.7
2.7
3.9
5.0
4.9
5.0
4.9
2.6
3.9
5.0
5.0
5.0
5.0
5.0
4.7
4.4
5.0
3.8
5.0
5.0
2.6
5.0
3.3
3.3
4.3
4.3
4.1
5.0
5.0
3.2
5.0
5.0
5.0
2.5
4.6
3.5
4.2
4.1
5.0
5.0
2.9
5.0
5.0
3.6
4.5
3.9
5.0
4.4
3.9
5.0
4.1
5.0
4.9
2.5
5.0
3.3
4.0
4.6
5.0
5.0
3.6
5.0
3.6
3.4
4.8
3.7
4.8
3.8
4.9
4.1
4.5
2.6
3.7
4.3
5.0
4.6
4.3
4.6
4.9
4.5
4.1
5.0
5.0
5.0
3.5
4.2
4.6
4.4
5.0
4.4
4.7
5.0
4.6
3.2
5.0
2.6
4.0
4.7
4.4
3.3
5.0
4.4
4.4
4.5
5.0
4.7
4.6
2.1
4.7
5.0
4.3
5.0
3.5
5.0
5.0
5.0
3.7
3.5
3.6
3.9
5.0
5.0
3.0
5.0
5.0
4.6
4.3
5.0
4.8
4.4
5.0
5.0
2.3
4.6
3.9
5.0
2.3
2.6
5.0
4.4
5.0
3.4
5.0
5.0
5.0
4.4
4.6
4.6
3.8
5.0
4.6
4.4
5.0
4.8
5.0
4.3
4.5
4.8
5.0
3.7
5.0
4.9
4.6
2.2
3.8
4.9
5.0
5.0
3.2
5.0
3.9
4.7
4.7
5.0
5.0
3.2
2.8
5.0
4.3
5.0
3.8
5.0
3.4
4.0
4.6
5.0
4.4
4.9
5.0
5.0
4.3
4.9
4.3
3.8
4.2
2.8
4.2
4.8
3.4
5.0
4.6
4.0
4.6
5.0
3.4
2.9
4.7
5.0
5.0
4.9
5.0
4.8
3.9
4.8
4.6
4.3
3.4
4.3
4.6
2.9
5.0
2.9
4.5
3.5
2.9
5.0
3.7
4.7
5.0
4.6
4.4
4.9
4.9
3.7
4.8
4.0
5.0
5.0
5.0
5.0
5.0
5.0
2.6
4.4
3.4
3.4
3.2
4.6
5.0
5.0
4.6
3.6
5.0
4.6
5.0
4.8
4.1
5.0
3.4
4.4
3.8
4.9
4.3
4.4
3.9
3.8
4.5
5.0
5.0
4.3
5.0
3.2
4.4
4.6
3.8
5.0
4.4
4.9
4.5
5.0
3.3
4.4
5.0
3.5
4.4
4.9
4.9
4.6
5.0
5.0
5.0
4.8
5.0
4.4
2.8
4.0
5.0
4.3
5.0
3.1
4.3
4.7
4.6
5.0
4.5
3.3
5.0
5.0
4.6
3.7
4.3
2.3
3.7
5.0
4.6
4.9
3.8
4.6
5.0
3.4
3.1
3.9
4.2
5.0
4.5
5.0
5.0
4.6
3.3
3.5
4.4
4.2
3.3
4.2
5.0
2.3
4.9
2.5
2.7
4.8
4.7
5.0
3.5
2.3
4.9
4.7
2.2
4.8
5.0
4.5
3.9
4.7
5.0
5.0
5.0
4.5
3.4
5.0
5.0
5.0
4.9
3.5
4.9
3.3
4.4
4.2
4.7
4.5
5.0
5.0
3.2
5.0
5.0
5.0
4.7
5.0
4.8
3.3
2.4
4.9
4.5
3.3
3.5
3.2
4.3
4.9
4.2
5.0
4.2
4.1
4.8
4.0
5.0
4.4
4.3
5.0
5.0
4.6
4.8
2.8
5.0
4.5
5.0
5.0
5.0
5.0
4.7
4.6
5.0
4.1
4.5
5.0
5.0
4.7
3.2
5.0
4.4
2.4
3.5
5.0
3.0
2.8
5.0
4.7
4.4
5.0
4.7
5.0
5.0
5.0
4.1
5.0
3.2
5.0
4.1
5.0
4.1
4.9
4.4
3.4
5.0
5.0
5.0
2.5
5.0
4.3
4.3
3.3
2.8
3.5
5.0
5.0
4.4
4.5
2.4
4.3
5.0
2.6
4.5
5.0
4.7
4.3
2.5
3.7
3.7
3.6
3.9
3.9
2.2
4.8
4.6
3.7
3.9
5.0
3.3
4.8
2.5
5.0
4.5
5.0
4.7
3.0
4.2
4.4
5.0
4.9
5.0
4.6
4.1
3.7
4.8
5.0
3.3
3.2
4.6
5.0
4.8
3.5
4.2
5.0
2.7
3.8
5.0
4.6
3.9
5.0
5.0
5.0
5.0
3.9
5.0
3.4
2.9
2.3
5.0
2.3
5.0
4.9
5.0
5.0
5.0
3.7
3.8
4.9
5.0
3.9
4.3
2.9
5.0
4.5
5.0
3.4
5.0
3.6
4.4
5.0
5.0
5.0
3.4
4.5
4.0
4.7
3.0
4.9
4.3
4.4
5.0
5.0
5.0
5.0
5.0
4.7
3.6
5.0
4.8
5.0
4.3
3.8
3.8
4.0
3.5
4.3
5.0
5.0
3.5
3.6
3.3
4.3
4.6
3.9
2.2
5.0
4.8
5.0
3.8
4.3
5.0
4.3
5.0
5.0
3.2
5.0
4.0
5.0
5.0
3.9
3.5
5.0
4.6
3.0
5.0
4.7
5.0
4.2
3.6
5.0
5.0
5.0
4.0
3.3
4.9
4.6
3.5
4.8
4.5
5.0
4.3
3.3
4.7
4.6
5.0
3.6
5.0
5.0
4.3
4.9
3.3
4.5
4.7
5.0
3.8
5.0
4.3
4.8
5.0
3.4
4.6
4.5
2.3
4.6
5.0
5.0
4.4
5.0
2.7
4.9
2.9
4.9
4.0
3.9
4.7
4.3
4.1
5.0
5.0
3.9
4.6
4.5
5.0
5.0
3.7
4.3
3.7
3.6
4.9
5.0
4.7
4.9
3.6
5.0
4.8
5.0
4.4
4.4
4.7
2.3
3.7
5.0
4.9
4.3
4.4
4.4
3.5
3.4
4.2
3.8
5.0
3.3
4.6
4.3
5.0
5.0
3.6
5.0
4.9
4.9
5.0
4.9
3.9
3.6
3.5
5.0
4.5
3.5
4.9
5.0
4.7
4.4
4.7
4.6
4.0
2.9
4.3
4.0
4.9
3.6
5.0
3.9
5.0
5.0
5.0
4.2
5.0
4.5
4.4
3.0
5.0
3.9
4.9
5.0
5.0
4.5
4.3
5.0
3.3
5.0
3.5
4.2
4.7
5.0
4.9
4.3
5.0
5.0
3.8
2.4
5.0
4.1
5.0
4.4
3.3
4.1
5.0
4.4
4.6
3.8
3.8
4.9
4.8
3.4
3.7
4.5
4.8
5.0
4.9
5.0
3.6
4.6
2.6
4.2
2.2
5.0
5.0
2.1
5.0
3.3
4.3
4.7
4.6
4.8
5.0
5.0
3.8
5.0
5.0
3.8
4.1
5.0
5.0
5.0
4.7
2.3
4.8
3.4
3.7
5.0
5.0
2.9
4.9
3.7
3.3
5.0
3.9
3.9
3.6
2.3
4.3
5.0
5.0
5.0
5.0
5.0
3.3
4.9
3.5
4.5
5.0
5.0
5.0
3.9
5.0
5.0
4.6
3.8
4.8
5.0
3.9
4.3
3.5
5.0
4.9
2.5
3.5
4.9
3.7
4.1
5.0
3.7
3.8
4.7
4.4
3.3
5.0
2.8
5.0
5.0
4.2
5.0
5.0
4.1
4.7
5.0
5.0
3.7
4.0
4.4
5.0
5.0
4.7
5.0
4.4
5.0
4.9
2.7
4.9
4.8
3.9
4.5
5.0
5.0
5.0
5.0
5.0
5.0
5.0
3.6
5.0
4.8
3.9
3.7
5.0
5.0
2.4
3.5
5.0
5.0
5.0
3.6
5.0
4.9
5.0
2.8
5.0
5.0
5.0
4.2
4.0
4.6
5.0
2.7
4.6
4.9
4.3
3.5
3.2
4.3
5.0
4.6
2.9
5.0
5.0
4.7
4.0
5.0
4.8
5.0
5.0
4.6
4.4
2.5
5.0
2.4
4.6
5.0
3.4
4.6
5.0
4.4
5.0
4.5
4.2
3.6
4.0
4.7
3.2
4.9
4.4
4.4
4.4
2.7
5.0
4.5
4.2
4.5
2.1
5.0
5.0
3.4
4.5
5.0
4.8
2.7
5.0
5.0
4.5
3.7
4.7
5.0
4.8
5.0
5.0
4.9
4.5
2.2
5.0
3.8
4.2
5.0
4.6
5.0
3.9
5.0
4.5
4.7
5.0
5.0
3.9
5.0
4.9
3.3
4.6
3.5
5.0
5.0
5.0
4.3
4.5
4.0
5.0
5.0
2.7
4.3
4.3
3.4
5.0
3.7
4.0
4.5
5.0
5.0
5.0
3.3
5.0
5.0
3.6
5.0
5.0
5.0
3.5
2.6
4.2
3.6
4.8
5.0
4.5
4.6
3.6
3.6
2.3
5.0
4.6
5.0
2.6
5.0
5.0
4.6
3.1
4.4
4.9
4.2
5.0
5.0
4.9
5.0
4.9
3.8
5.0
4.2
2.2
4.9
4.0
5.0
4.9
3.7
4.8
4.1
2.2
4.1
5.0
2.5
4.7
4.8
3.9
2.7
3.4
4.2
3.2
5.0
5.0
4.3
4.6
3.7
4.4
5.0
4.6
5.0
4.5
4.4
5.0
5.0
4.7
3.9
5.0
4.5
3.6
5.0
5.0
5.0
2.2
4.9
3.4
2.4
3.5
2.3
3.7
5.0
5.0
5.0
3.5
5.0
4.6
5.0
4.2
4.7
4.5
3.8
5.0
4.8
5.0
4.2
3.4
4.8
5.0
5.0
4.7
4.9
4.6
4.3
3.7
3.9
4.5
3.4
5.0
4.3
4.7
5.0
5.0
2.5
4.2
2.7
3.4
4.7
3.2
4.5
4.7
4.6
5.0
3.9
4.4
3.3
5.0
3.7
4.8
5.0
3.5
4.2
4.4
3.9
5.0
4.8
5.0
4.7
3.6
5.0
4.9
4.4
3.5
3.8
5.0
4.8
5.0
5.0
5.0
5.0
4.9
5.0
5.0
4.9
4.3
4.7
5.0
5.0
4.9
4.3
4.8
5.0
5.0
2.8
5.0
5.0
5.0
5.0
2.9
4.4
3.1
3.5
3.5
2.9
5.0
5.0
5.0
4.0
5.0
4.6
2.8
4.3
5.0
5.0
2.9
5.0
3.9
3.9
4.4
2.8
3.3
2.5
3.4
4.3
5.0
2.6
3.6
3.8
2.5
3.8
4.6
4.5
5.0
5.0
5.0
3.6
5.0
5.0
4.7
5.0
5.0
5.0
4.1
5.0
5.0
5.0
4.9
4.8
5.0
3.9
4.1
4.9
5.0
3.8
5.0
4.1
3.2
4.9
2.1
5.0
5.0
4.2
5.0
4.8
4.3
4.8
5.0
5.0
4.7
4.9
5.0
4.3
5.0
5.0
4.5
4.3
5.0
4.3
2.6
3.0
3.3
5.0
5.0
3.4
5.0
4.8
5.0
5.0
5.0
5.0
4.8
5.0
3.8
3.8
4.3
5.0
5.0
3.9
5.0
4.5
5.0
2.8
3.3
4.8
3.9
5.0
4.7
2.7
5.0
4.7
5.0
5.0
5.0
4.8
3.8
4.6
4.3
5.0
4.3
3.2
4.9
5.0
4.3
3.8
4.8
4.8
4.9
4.4
3.3
5.0
4.5
3.8
3.7
4.9
3.3
5.0
4.4
2.3
3.2
3.4
4.5
5.0
5.0
3.5
3.5
4.8
4.3
4.5
5.0
3.4
5.0
4.6
5.0
4.1
4.7
4.2
5.0
4.4
4.4
5.0
5.0
3.5
4.1
5.0
3.8
4.0
4.9
4.9
5.0
3.5
3.2
4.9
5.0
4.0
5.0
5.0
4.3
4.6
5.0
2.5
5.0
4.8
3.8
4.9
4.8
5.0
4.5
4.9
3.4
4.6
3.9
3.5
5.0
5.0
2.2
2.7
5.0
4.7
5.0
5.0
3.9
5.0
5.0
4.2
5.0
4.3
4.4
5.0
3.2
3.5
4.3
5.0
4.1
3.0
5.0
3.9
4.0
5.0
4.0
4.0
3.4
4.8
3.1
5.0
5.0
4.7
4.6
5.0
5.0
4.4
4.4
3.8
4.2
4.3
5.0
3.4
3.9
5.0
4.9
5.0
5.0
5.0
4.6
3.2
4.0
4.9
4.1
5.0
3.4
2.7
4.9
4.6
2.7
4.7
5.0
4.5
2.3
5.0
2.6
2.9
5.0
3.9
3.6
4.4
5.0
5.0
4.4
3.3
4.6
3.9
4.6
4.5
4.8
5.0
5.0
4.6
5.0
5.0
5.0
3.9
4.9
3.3
4.6
5.0
4.1
4.1
4.6
4.8
3.2
4.4
3.9
5.0
3.9
5.0
3.8
5.0
3.5
4.8
3.6
4.7
5.0
5.0
3.5
4.9
3.8
4.3
5.0
4.3
4.0
4.8
5.0
4.4
5.0
3.4
5.0
3.5
4.3
4.3
5.0
5.0
5.0
5.0
3.2
3.4
4.5
4.3
5.0
2.4
5.0
5.0
5.0
4.7
4.5
5.0
4.7
5.0
3.5
5.0
3.6
4.7
5.0
3.5
4.5
5.0
4.9
3.5
4.9
2.9
4.6
5.0
2.2
5.0
5.0
4.4
4.5
3.4
5.0
4.4
2.4
3.2
3.4
5.0
5.0
4.2
5.0
3.8
2.9
4.0
3.6
4.9
3.4
4.8
5.0
4.1
4.2
5.0
4.7
3.0
5.0
5.0
4.9
5.0
5.0
5.0
4.7
5.0
5.0
5.0
5.0
2.6
5.0
5.0
5.0
5.0
2.9
5.0
5.0
4.4
4.6
4.5
4.2
5.0
4.5
5.0
3.1
3.9
4.1
3.9
4.4
4.6
3.6
4.2
5.0
3.6
2.7
5.0
5.0
2.4
3.7
5.0
4.8
5.0
5.0
5.0
5.0
5.0
3.4
2.7
4.6
2.4
3.0
5.0
4.4
5.0
5.0
5.0
2.2
4.1
4.5
5.0
4.7
5.0
5.0
4.7
5.0
5.0
3.8
5.0
3.9
3.2
5.0
3.5
5.0
4.2
5.0
4.8
5.0
3.3
3.9
3.7
2.4
5.0
4.0
4.5
4.8
4.4
4.6
5.0
4.9
4.8
2.8
4.6
5.0
4.7
4.2
3.5
3.6
3.4
5.0
5.0
3.4
4.8
4.7
3.6
3.7
5.0
5.0
5.0
5.0
4.3
5.0
4.2
3.0
4.8
5.0
5.0
3.5
5.0
3.5
3.6
5.0
5.0
5.0
3.2
4.9
4.6
5.0
4.3
4.2
2.2
4.5
2.1
5.0
5.0
5.0
4.5
4.8
4.1
3.9
2.2
4.0
5.0
4.8
5.0
5.0
5.0
3.0
3.7
4.7
4.4
5.0
5.0
3.6
2.5
5.0
5.0
2.4
5.0
4.3
4.0
5.0
5.0
5.0
5.0
4.8
4.2
5.0
4.2
4.4
5.0
3.7
3.8
3.5
4.2
3.7
3.4
3.7
4.7
5.0
4.4
3.3
3.3
4.6
5.0
3.7
4.1
5.0
3.7
2.8
4.8
3.5
5.0
5.0
5.0
3.1
4.4
5.0
5.0
3.6
5.0
3.9
4.5
5.0
5.0
5.0
5.0
5.0
5.0
2.9
5.0
5.0
5.0
5.0
5.0
5.0
5.0
5.0
5.0
3.0
4.9
5.0
4.1
2.5
5.0
3.7
4.1
4.0
5.0
3.3
5.0
5.0
4.9
3.5
3.5
2.8
4.4
2.9
2.5
4.3
4.8
3.4
5.0
5.0
5.0
4.5
4.4
4.7
5.0
4.0
5.0
5.0
3.9
3.3
5.0
3.3
4.6
5.0
4.9
3.2
5.0
3.1
4.6
5.0
4.7
5.0
5.0
5.0
5.0
4.9
3.8
5.0
4.7
5.0
4.1
3.5
4.8
4.4
4.5
3.6
4.8
4.7
4.8
4.3
4.8
5.0
4.5
4.8
5.0
3.8
5.0
4.0
2.7
5.0
5.0
5.0
5.0
4.5
5.0
3.4
2.2
4.4
5.0
4.2
4.8
4.8
5.0
2.9
3.4
4.0
3.7
5.0
3.3
5.0
4.5
5.0
5.0
3.5
5.0
4.7
4.7
2.4
4.8
5.0
5.0
5.0
4.6
4.6
5.0
3.7
5.0
4.1
4.4
4.5
3.5
3.9
5.0
4.5
5.0
4.3
4.6
2.4
4.6
3.5
4.0
3.5
3.2
4.4
3.2
4.5
5.0
5.0
5.0
2.1
4.8
3.7
3.8
4.5
4.5
5.0
5.0
3.1
2.8
4.3
3.5
3.6
4.5
5.0
5.0
3.7
4.3
5.0
2.4
4.3
5.0
5.0
5.0
4.7
3.3
3.2
4.9
4.4
3.8
12700:
4.7
12701:
5.0
4.0
5.0
12702:
3.8
2.3
5.0
3.4
3.2
5.0
4.9
2.3
5.0
2.3
4.9
4.2
12703:
5.0
3.5
5.0
4.9
4.3
4.0
4.7
5.0
5.0
5.0
12704:
3.1
3.7
3.3
4.5
5.0
5.0
5.0
4.6
4.2
2.7
3.0
2.7
4.2
4.9
5.0
5.0
5.0
5.0
5.0
3.5
5.0
5.0
5.0
5.0
5.0
5.0
5.0
3.5
4.8
3.0
5.0
3.1
4.9
3.5
5.0
5.0
5.0
5.0
4.0
12705:
2.6
2.4
12706:
5.0
5.0
12707:
5.0
5.0
12708:
2.8
4.7
4.8
4.9
5.0
5.0
4.8
2.7
5.0
3.3
4.1
4.0
2.1
4.5
5.0
2.6
5.0
4.4
3.5
3.9
4.3
2.4
2.5
12709:
3.7
2.4
4.6
5.0
2.8
1271:
5.0
3.9
4.6
5.0
5.0
4.0
5.0
5.0
4.8
5.0
5.0
2.6
3.9
3.9
5.0
5.0
5.0
3.2
12710:
5.0
2.8
5.0
3.7
5.0
5.0
5.0
12711:
4.6
4.5
2.4
5.0
4.3
5.0
12712:
4.9
5.0
4.8
3.2
12713:
5.0
2.6
2.9
4.0
5.0
3.8
3.7
3.7
2.7
3.3
2.3
3.2
2.2
3.4
5.0
12714:
3.0
5.0
5.0
4.1
4.5
3.5
4.7
5.0
5.0
5.0
4.4
5.0
5.0
3.8
3.8
5.0
4.5
4.0
2.8
5.0
4.4
4.5
2.7
4.6
5.0
4.2
12715:
5.0
5.0
3.7
5.0
4.9
12716:
5.0
4.8
2.5
4.8
5.0
4.3
5.0
4.5
3.5
5.0
5.0
3.5
3.0
4.5
5.0
3.2
4.1
5.0
3.0
3.4
5.0
4.8
5.0
3.9
4.9
12717:
2.6
2.9
3.4
3.8
3.7
12718:
3.2
5.0
5.0
5.0
5.0
4.6
5.0
3.0
5.0
5.0
5.0
4.4
4.2
5.0
4.4
5.0
12719:
5.0
4.3
5.0
5.0
4.7
5.0
3.4
5.0
4.5
5.0
5.0
5.0
5.0
4.9
2.7
5.0
5.0
5.0
3.0
5.0
4.6
5.0
5.0
4.4
4.6
5.0
4.8
5.0
5.0
5.0
5.0
5.0
5.0
5.0
4.0
4.2
5.0
5.0
3.9
5.0
4.8
5.0
5.0
5.0
4.4
5.0
3.7
5.0
4.6
5.0
4.6
4.4
5.0
5.0
5.0
3.8
4.7
2.4
5.0
4.4
5.0
5.0
4.9
4.9
5.0
3.6
4.8
5.0
5.0
4.9
3.5
5.0
3.9
4.2
4.1
4.4
5.0
5.0
4.9
4.6
4.6
1272:
5.0
5.0
5.0
5.0
5.0
5.0
4.7
5.0
3.8
5.0
4.1
5.0
5.0
2.8
3.8
3.9
4.9
3.9
4.4
5.0
5.0
4.2
5.0
3.2
3.9
4.6
5.0
5.0
5.0
5.0
5.0
5.0
5.0
4.4
4.6
4.4
4.3
5.0
4.3
4.9
4.3
4.5
5.0
5.0
5.0
4.7
3.9
5.0
3.5
5.0
12720:
3.7
2.8
4.3
3.4
4.5
5.0
4.6
3.2
4.5
2.3
4.8
5.0
4.6
5.0
4.0
5.0
12721:
4.5
5.0
5.0
3.1
4.1
4.2
4.2
3.7
4.8
4.7
5.0
5.0
3.2
5.0
3.6
5.0
4.8
5.0
5.0
3.2
4.5
5.0
4.6
3.7
3.9
5.0
5.0
4.8
4.3
5.0
4.3
3.6
3.2
5.0
4.7
5.0
3.4
3.4
5.0
5.0
5.0
4.0
4.4
5.0
4.7
5.0
3.3
5.0
5.0
3.7
5.0
5.0
5.0
5.0
5.0
4.9
3.6
2.4
4.7
5.0
5.0
4.5
3.2
5.0
5.0
3.4
5.0
5.0
2.4
5.0
4.6
4.2
3.8
5.0
3.5
4.2
5.0
5.0
5.0
3.2
5.0
5.0
4.6
3.4
3.3
5.0
2.7
4.3
2.1
4.8
5.0
5.0
5.0
4.3
4.0
5.0
5.0
5.0
5.0
4.6
5.0
5.0
3.9
3.7
5.0
4.7
5.0
5.0
5.0
5.0
4.9
5.0
2.5
2.2
4.8
5.0
3.8
3.9
2.8
3.9
4.7
5.0
2.9
5.0
2.6
5.0
5.0
5.0
5.0
4.6
4.8
5.0
5.0
4.4
4.5
5.0
5.0
5.0
5.0
3.3
5.0
5.0
5.0
4.2
5.0
4.2
5.0
5.0
2.4
5.0
5.0
5.0
4.7
5.0
12722:
5.0
5.0
4.1
5.0
5.0
4.1
5.0
5.0
3.5
4.6
5.0
5.0
5.0
5.0
5.0
4.0
5.0
5.0
5.0
5.0
3.7
5.0
5.0
12723:
5.0
2.9
4.2
5.0
5.0
3.5
4.8
5.0
5.0
3.4
2.9
3.1
2.4
2.3
4.3
12725:
5.0
3.9
5.0
4.8
12726:
4.7
5.0
3.4
5.0
4.9
5.0
5.0
5.0
4.0
5.0
5.0
3.9
4.2
5.0
5.0
5.0
5.0
3.9
5.0
4.3
5.0
4.1
5.0
4.5
5.0
5.0
4.1
4.9
5.0
4.8
12727:
3.7
2.1
2.6
2.8
4.1
5.0
4.8
5.0
5.0
5.0
3.0
4.9
4.6
3.6
2.4
5.0
12728:
4.1
2.2
4.4
5.0
2.9
5.0
4.5
5.0
5.0
5.0
2.9
5.0
5.0
5.0
12729:
4.6
5.0
12730:
4.0
3.5
3.3
3.4
3.2
12731:
5.0
5.0
5.0
2.3
5.0
5.0
5.0
5.0
5.0
4.7
5.0
4.8
5.0
4.4
5.0
5.0
5.0
5.0
5.0
5.0
5.0
5.0
5.0
5.0
5.0
5.0
5.0
5.0
4.4
5.0
5.0
5.0
5.0
5.0
4.6
4.0
5.0
4.5
5.0
5.0
5.0
4.5
5.0
5.0
4.9
5.0
5.0
5.0
5.0
5.0
5.0
5.0
5.0
5.0
5.0
4.4
5.0
12732:
5.0
5.0
5.0
5.0
4.9
5.0
2.9
5.0
5.0
4.1
5.0
5.0
5.0
5.0
5.0
4.3
4.6
5.0
5.0
5.0
5.0
4.0
5.0
3.6
5.0
2.4
4.5
2.7
4.2
5.0
5.0
4.5
5.0
4.9
5.0
4.0
4.7
5.0
5.0
3.9
2.4
5.0
2.5
3.5
4.9
4.6
5.0
5.0
2.3
5.0
4.2
4.8
5.0
2.9
5.0
3.5
3.8
3.0
5.0
5.0
4.7
5.0
5.0
5.0
5.0
5.0
4.7
5.0
5.0
5.0
5.0
4.3
4.4
5.0
5.0
5.0
4.4
5.0
5.0
4.6
5.0
5.0
4.8
3.4
3.6
3.8
5.0
5.0
5.0
5.0
4.6
5.0
3.7
4.3
5.0
4.9
5.0
4.5
4.7
3.6
4.5
5.0
5.0
4.7
3.7
3.8
5.0
5.0
5.0
5.0
5.0
2.2
5.0
4.8
5.0
4.7
5.0
5.0
5.0
4.2
4.5
5.0
5.0
4.5
5.0
4.6
4.5
3.5
5.0
5.0
5.0
5.0
4.4
5.0
4.5
4.1
4.6
4.7
5.0
5.0
5.0
5.0
3.3
3.7
4.3
4.6
5.0
5.0
5.0
5.0
5.0
4.5
3.7
5.0
4.9
4.3
2.5
5.0
5.0
4.4
5.0
5.0
3.8
5.0
2.8
5.0
5.0
3.7
5.0
5.0
5.0
5.0
5.0
4.6
3.9
4.6
2.6
2.4
5.0
4.4
5.0
5.0
5.0
5.0
4.7
5.0
4.5
4.8
3.3
4.4
4.8
5.0
5.0
5.0
5.0
5.0
5.0
3.6
5.0
5.0
5.0
4.9
3.7
5.0
5.0
5.0
4.2
3.9
3.8
5.0
4.8
5.0
5.0
5.0
2.2
5.0
5.0
3.8
5.0
3.7
4.6
4.8
RMSE: 0.97
